Designator,Mid X,Mid Y,Layer,Rotation
C1,12.19,19.05,Top,90.0
D1, 8.64,15.24,Top,0.0
D2,19.05,19.81,Top,0.0
LED1,30.48,15.75,Top,270.0
R1, 6.35,20.32,Top,0.0
R2, 4.06,15.24,Top,0.0
R3,34.29,15.75,Top,270.0
R4,31.50,20.07,Top,180.0
R5,24.89,19.56,Top,90.0
T1, 5.84, 8.89,Top,90.0
X1,19.05,31.75,Top,0.0
