<?xml version="1.0" encoding="utf-8"?>
<!DOCTYPE eagle SYSTEM "eagle.dtd">
<eagle version="9.6.2">
<drawing>
<settings>
<setting alwaysvectorfont="no"/>
<setting verticaltext="up"/>
</settings>
<grid distance="10" unitdist="mil" unit="mil" style="lines" multiple="1" display="no" altdistance="5" altunitdist="mil" altunit="mil"/>
<layers>
<layer number="1" name="Top" color="4" fill="1" visible="yes" active="yes"/>
<layer number="16" name="Bottom" color="1" fill="1" visible="yes" active="yes"/>
<layer number="17" name="Pads" color="2" fill="1" visible="yes" active="yes"/>
<layer number="18" name="Vias" color="2" fill="1" visible="yes" active="yes"/>
<layer number="19" name="Unrouted" color="6" fill="1" visible="yes" active="yes"/>
<layer number="20" name="Dimension" color="24" fill="1" visible="yes" active="yes"/>
<layer number="21" name="tPlace" color="7" fill="1" visible="yes" active="yes"/>
<layer number="22" name="bPlace" color="7" fill="1" visible="yes" active="yes"/>
<layer number="23" name="tOrigins" color="15" fill="1" visible="yes" active="yes"/>
<layer number="24" name="bOrigins" color="15" fill="1" visible="yes" active="yes"/>
<layer number="25" name="tNames" color="7" fill="1" visible="yes" active="yes"/>
<layer number="26" name="bNames" color="7" fill="1" visible="yes" active="yes"/>
<layer number="27" name="tValues" color="7" fill="1" visible="yes" active="yes"/>
<layer number="28" name="bValues" color="7" fill="1" visible="yes" active="yes"/>
<layer number="29" name="tStop" color="7" fill="3" visible="no" active="yes"/>
<layer number="30" name="bStop" color="7" fill="6" visible="no" active="yes"/>
<layer number="31" name="tCream" color="7" fill="4" visible="no" active="yes"/>
<layer number="32" name="bCream" color="7" fill="5" visible="no" active="yes"/>
<layer number="33" name="tFinish" color="6" fill="3" visible="no" active="yes"/>
<layer number="34" name="bFinish" color="6" fill="6" visible="no" active="yes"/>
<layer number="35" name="tGlue" color="7" fill="4" visible="no" active="yes"/>
<layer number="36" name="bGlue" color="7" fill="5" visible="no" active="yes"/>
<layer number="37" name="tTest" color="7" fill="1" visible="no" active="yes"/>
<layer number="38" name="bTest" color="7" fill="1" visible="no" active="yes"/>
<layer number="39" name="tKeepout" color="4" fill="11" visible="yes" active="yes"/>
<layer number="40" name="bKeepout" color="1" fill="11" visible="yes" active="yes"/>
<layer number="41" name="tRestrict" color="4" fill="10" visible="yes" active="yes"/>
<layer number="42" name="bRestrict" color="1" fill="10" visible="yes" active="yes"/>
<layer number="43" name="vRestrict" color="2" fill="10" visible="yes" active="yes"/>
<layer number="44" name="Drills" color="7" fill="1" visible="no" active="yes"/>
<layer number="45" name="Holes" color="7" fill="1" visible="no" active="yes"/>
<layer number="46" name="Milling" color="3" fill="1" visible="no" active="yes"/>
<layer number="47" name="Measures" color="7" fill="1" visible="no" active="yes"/>
<layer number="48" name="Document" color="7" fill="1" visible="yes" active="yes"/>
<layer number="49" name="Reference" color="7" fill="1" visible="yes" active="yes"/>
<layer number="50" name="dxf" color="7" fill="1" visible="no" active="no"/>
<layer number="51" name="tDocu" color="7" fill="1" visible="yes" active="yes"/>
<layer number="52" name="bDocu" color="7" fill="1" visible="yes" active="yes"/>
<layer number="53" name="tGND_GNDA" color="7" fill="9" visible="no" active="no"/>
<layer number="54" name="bGND_GNDA" color="1" fill="9" visible="no" active="no"/>
<layer number="56" name="wert" color="7" fill="1" visible="no" active="no"/>
<layer number="57" name="tCAD" color="7" fill="1" visible="no" active="no"/>
<layer number="59" name="tCarbon" color="7" fill="1" visible="no" active="no"/>
<layer number="60" name="bCarbon" color="7" fill="1" visible="no" active="no"/>
<layer number="88" name="SimResults" color="9" fill="1" visible="no" active="no"/>
<layer number="89" name="SimProbes" color="9" fill="1" visible="no" active="no"/>
<layer number="90" name="Modules" color="5" fill="1" visible="no" active="no"/>
<layer number="91" name="Nets" color="2" fill="1" visible="no" active="no"/>
<layer number="92" name="Busses" color="1" fill="1" visible="no" active="no"/>
<layer number="93" name="Pins" color="2" fill="1" visible="no" active="no"/>
<layer number="94" name="Symbols" color="4" fill="1" visible="no" active="no"/>
<layer number="95" name="Names" color="7" fill="1" visible="no" active="no"/>
<layer number="96" name="Values" color="7" fill="1" visible="no" active="no"/>
<layer number="97" name="Info" color="7" fill="1" visible="no" active="no"/>
<layer number="98" name="Guide" color="6" fill="1" visible="no" active="no"/>
<layer number="99" name="SpiceOrder" color="7" fill="1" visible="no" active="no"/>
<layer number="100" name="Muster" color="7" fill="1" visible="no" active="no"/>
<layer number="101" name="Patch_Top" color="12" fill="4" visible="no" active="no"/>
<layer number="102" name="Vscore" color="7" fill="1" visible="no" active="no"/>
<layer number="103" name="tMap" color="7" fill="1" visible="no" active="no"/>
<layer number="104" name="Name" color="16" fill="1" visible="no" active="no"/>
<layer number="105" name="tPlate" color="7" fill="1" visible="no" active="no"/>
<layer number="106" name="bPlate" color="7" fill="1" visible="no" active="no"/>
<layer number="107" name="Crop" color="7" fill="1" visible="no" active="no"/>
<layer number="108" name="tplace-old" color="10" fill="1" visible="no" active="no"/>
<layer number="109" name="ref-old" color="11" fill="1" visible="no" active="no"/>
<layer number="110" name="fp0" color="7" fill="1" visible="no" active="no"/>
<layer number="111" name="LPC17xx" color="7" fill="1" visible="no" active="no"/>
<layer number="112" name="tSilk" color="7" fill="1" visible="no" active="no"/>
<layer number="113" name="IDFDebug" color="7" fill="1" visible="no" active="no"/>
<layer number="114" name="Badge_Outline" color="7" fill="1" visible="no" active="no"/>
<layer number="115" name="ReferenceISLANDS" color="7" fill="1" visible="no" active="no"/>
<layer number="116" name="Patch_BOT" color="9" fill="4" visible="no" active="no"/>
<layer number="118" name="Rect_Pads" color="7" fill="1" visible="no" active="no"/>
<layer number="121" name="_tsilk" color="7" fill="1" visible="no" active="no"/>
<layer number="122" name="_bsilk" color="7" fill="1" visible="no" active="no"/>
<layer number="123" name="tTestmark" color="7" fill="1" visible="no" active="no"/>
<layer number="124" name="bTestmark" color="7" fill="1" visible="no" active="no"/>
<layer number="125" name="_tNames" color="7" fill="1" visible="no" active="no"/>
<layer number="126" name="_bNames" color="7" fill="1" visible="no" active="no"/>
<layer number="127" name="_tValues" color="7" fill="1" visible="no" active="no"/>
<layer number="128" name="_bValues" color="7" fill="1" visible="no" active="no"/>
<layer number="129" name="Mask" color="7" fill="1" visible="no" active="no"/>
<layer number="131" name="tAdjust" color="7" fill="1" visible="no" active="no"/>
<layer number="132" name="bAdjust" color="7" fill="1" visible="no" active="no"/>
<layer number="144" name="Drill_legend" color="7" fill="1" visible="no" active="no"/>
<layer number="150" name="Notes" color="7" fill="1" visible="no" active="no"/>
<layer number="151" name="HeatSink" color="7" fill="1" visible="no" active="no"/>
<layer number="152" name="_bDocu" color="7" fill="1" visible="no" active="no"/>
<layer number="153" name="FabDoc1" color="7" fill="1" visible="no" active="no"/>
<layer number="154" name="FabDoc2" color="7" fill="1" visible="no" active="no"/>
<layer number="155" name="FabDoc3" color="7" fill="1" visible="no" active="no"/>
<layer number="199" name="Contour" color="7" fill="1" visible="no" active="no"/>
<layer number="200" name="200bmp" color="1" fill="10" visible="no" active="no"/>
<layer number="201" name="201bmp" color="2" fill="10" visible="no" active="no"/>
<layer number="202" name="202bmp" color="3" fill="10" visible="no" active="no"/>
<layer number="203" name="203bmp" color="4" fill="10" visible="no" active="no"/>
<layer number="204" name="204bmp" color="5" fill="10" visible="no" active="no"/>
<layer number="205" name="205bmp" color="6" fill="10" visible="no" active="no"/>
<layer number="206" name="206bmp" color="7" fill="10" visible="no" active="no"/>
<layer number="207" name="207bmp" color="8" fill="10" visible="no" active="no"/>
<layer number="208" name="208bmp" color="9" fill="10" visible="no" active="no"/>
<layer number="209" name="209bmp" color="7" fill="1" visible="no" active="no"/>
<layer number="210" name="210bmp" color="7" fill="1" visible="no" active="no"/>
<layer number="211" name="211bmp" color="7" fill="1" visible="no" active="no"/>
<layer number="212" name="212bmp" color="7" fill="1" visible="no" active="no"/>
<layer number="213" name="213bmp" color="7" fill="1" visible="no" active="no"/>
<layer number="214" name="214bmp" color="7" fill="1" visible="no" active="no"/>
<layer number="215" name="215bmp" color="7" fill="1" visible="no" active="no"/>
<layer number="216" name="216bmp" color="7" fill="1" visible="no" active="no"/>
<layer number="217" name="217bmp" color="18" fill="1" visible="no" active="no"/>
<layer number="218" name="218bmp" color="19" fill="1" visible="no" active="no"/>
<layer number="219" name="219bmp" color="20" fill="1" visible="no" active="no"/>
<layer number="220" name="220bmp" color="21" fill="1" visible="no" active="no"/>
<layer number="221" name="221bmp" color="22" fill="1" visible="no" active="no"/>
<layer number="222" name="222bmp" color="23" fill="1" visible="no" active="no"/>
<layer number="223" name="223bmp" color="24" fill="1" visible="no" active="no"/>
<layer number="224" name="224bmp" color="25" fill="1" visible="no" active="no"/>
<layer number="225" name="225bmp" color="7" fill="1" visible="no" active="no"/>
<layer number="226" name="226bmp" color="7" fill="1" visible="no" active="no"/>
<layer number="227" name="227bmp" color="7" fill="1" visible="no" active="no"/>
<layer number="228" name="228bmp" color="7" fill="1" visible="no" active="no"/>
<layer number="229" name="229bmp" color="7" fill="1" visible="no" active="no"/>
<layer number="230" name="230bmp" color="7" fill="1" visible="no" active="no"/>
<layer number="231" name="231bmp" color="7" fill="1" visible="no" active="no"/>
<layer number="232" name="Eagle3D_PG2" color="7" fill="1" visible="no" active="no"/>
<layer number="233" name="Eagle3D_PG3" color="7" fill="1" visible="no" active="no"/>
<layer number="248" name="Housing" color="7" fill="1" visible="no" active="no"/>
<layer number="249" name="Edge" color="7" fill="1" visible="no" active="no"/>
<layer number="250" name="Descript" color="3" fill="1" visible="no" active="no"/>
<layer number="251" name="SMDround" color="12" fill="11" visible="no" active="no"/>
<layer number="254" name="cooling" color="7" fill="1" visible="no" active="no"/>
<layer number="255" name="routoute" color="7" fill="1" visible="no" active="no"/>
</layers>
<board>
<plain>
<wire x1="0" y1="0" x2="37.77" y2="0" width="0" layer="20"/>
<wire x1="37.77" y1="0" x2="37.77" y2="29.2" width="0" layer="20"/>
<wire x1="37.77" y1="29.2" x2="0" y2="29.2" width="0" layer="20"/>
<wire x1="0" y1="29.2" x2="0" y2="0" width="0" layer="20"/>
<text x="1.524" y="1.27" size="0.8128" layer="27">Amiga
A1k Simple Midi-Out
by M.Jähne (2023)
Stumpi</text>
<text x="35.814" y="16.256" size="1.778" layer="28" rot="MR0">In memory of Andrew Fletcher
08.07.1961 - 26.05.22
Depeche Mode forever</text>
</plain>
<libraries>
<library name="con-subd" urn="urn:adsk.eagle:library:189">
<description>&lt;b&gt;SUB-D Connectors&lt;/b&gt;&lt;p&gt;
Harting&lt;br&gt;
NorComp&lt;br&gt;
&lt;p&gt;
PREFIX :&lt;br&gt;
H = High density&lt;br&gt;
F = Female&lt;br&gt;
M = Male&lt;p&gt;
NUMBER: Number of pins&lt;p&gt;
SUFFIX :&lt;br&gt;
H = Horizontal&lt;br&gt;
V = Vertical &lt;br&gt;
P = Shield pin on housing&lt;br&gt;
B = No mounting holes&lt;br&gt;
S = Pins individually placeable (Single)&lt;br&gt;
D = Direct mounting &lt;p&gt;
&lt;author&gt;Created by librarian@cadsoft.de&lt;/author&gt;</description>
<packages>
<package name="F25D" urn="urn:adsk.eagle:footprint:10189/1" library_version="2">
<description>&lt;b&gt;SUB-D&lt;/b&gt;</description>
<wire x1="-19.177" y1="6.9342" x2="-18.669" y2="7.4422" width="0.1524" layer="21" curve="-90"/>
<wire x1="18.542" y1="7.4422" x2="19.05" y2="6.9342" width="0.1524" layer="21" curve="-90"/>
<wire x1="-19.177" y1="1.8542" x2="-19.177" y2="6.9342" width="0.1524" layer="21"/>
<wire x1="-19.812" y1="1.2192" x2="-19.177" y2="1.8542" width="0.1524" layer="21" curve="90"/>
<wire x1="19.05" y1="1.8542" x2="19.05" y2="6.9342" width="0.1524" layer="21"/>
<wire x1="19.05" y1="1.8542" x2="19.685" y2="1.2192" width="0.1524" layer="21" curve="90"/>
<wire x1="-18.669" y1="7.4422" x2="18.542" y2="7.4422" width="0.1524" layer="21"/>
<wire x1="-18.6436" y1="0.508" x2="-18.6436" y2="1.016" width="0.1524" layer="21"/>
<wire x1="-18.6436" y1="0.508" x2="-18.5166" y2="0.508" width="0.1524" layer="21"/>
<wire x1="-18.5166" y1="-1.905" x2="-17.8816" y2="-2.54" width="0.1524" layer="21" curve="90"/>
<wire x1="-18.5166" y1="-1.905" x2="-18.5166" y2="0.508" width="0.1524" layer="21"/>
<wire x1="-17.901" y1="-2.54" x2="17.901" y2="-2.54" width="0.1524" layer="21"/>
<wire x1="18.6436" y1="0.508" x2="18.6436" y2="1.016" width="0.1524" layer="21"/>
<wire x1="18.5166" y1="-1.905" x2="18.5166" y2="0.508" width="0.1524" layer="21"/>
<wire x1="18.5166" y1="0.508" x2="18.6436" y2="0.508" width="0.1524" layer="21"/>
<wire x1="17.8816" y1="-2.54" x2="18.5166" y2="-1.905" width="0.1524" layer="21" curve="90"/>
<wire x1="-24.6888" y1="-2.7432" x2="-23.3172" y2="-4.1148" width="0" layer="48"/>
<wire x1="-23.3172" y1="-4.1148" x2="-21.9456" y2="-2.7432" width="0" layer="48"/>
<wire x1="-21.9456" y1="-2.7432" x2="-20.574" y2="-4.1148" width="0" layer="48"/>
<wire x1="-20.574" y1="-4.1148" x2="-19.2024" y2="-2.7432" width="0" layer="48"/>
<wire x1="19.2024" y1="-2.7432" x2="20.574" y2="-4.1148" width="0" layer="48"/>
<wire x1="20.574" y1="-4.1148" x2="21.9456" y2="-2.7432" width="0" layer="48"/>
<wire x1="21.9456" y1="-2.7432" x2="23.3172" y2="-4.1148" width="0" layer="48"/>
<wire x1="23.3172" y1="-4.1148" x2="24.6888" y2="-2.7432" width="0" layer="48"/>
<smd name="1" x="-16.4594" y="-6.0448" dx="1.7" dy="3.5" layer="1"/>
<smd name="2" x="-13.716" y="-6.045" dx="1.7" dy="3.5" layer="1"/>
<smd name="3" x="-10.9726" y="-6.0448" dx="1.7" dy="3.5" layer="1"/>
<smd name="4" x="-8.2298" y="-6.0448" dx="1.7" dy="3.5" layer="1"/>
<smd name="5" x="-5.4862" y="-6.0446" dx="1.7" dy="3.5" layer="1"/>
<smd name="6" x="-2.7434" y="-6.0448" dx="1.7" dy="3.5" layer="1"/>
<smd name="7" x="0" y="-6.045" dx="1.7" dy="3.5" layer="1"/>
<smd name="8" x="2.7434" y="-6.0448" dx="1.7" dy="3.5" layer="1"/>
<smd name="14" x="-15.0876" y="-6.0452" dx="1.7" dy="3.5" layer="16"/>
<smd name="9" x="5.4862" y="-6.0448" dx="1.7" dy="3.5" layer="1"/>
<smd name="10" x="8.2298" y="-6.0446" dx="1.7" dy="3.5" layer="1"/>
<smd name="11" x="10.9726" y="-6.0448" dx="1.7" dy="3.5" layer="1"/>
<smd name="12" x="13.716" y="-6.045" dx="1.7" dy="3.5" layer="1"/>
<smd name="13" x="16.4594" y="-6.0448" dx="1.7" dy="3.5" layer="1"/>
<smd name="15" x="-12.3444" y="-6.0452" dx="1.7" dy="3.5" layer="16"/>
<smd name="16" x="-9.6012" y="-6.0452" dx="1.7" dy="3.5" layer="16"/>
<smd name="17" x="-6.858" y="-6.0452" dx="1.7" dy="3.5" layer="16"/>
<smd name="18" x="-4.1148" y="-6.0452" dx="1.7" dy="3.5" layer="16"/>
<smd name="19" x="-1.3716" y="-6.0452" dx="1.7" dy="3.5" layer="16"/>
<smd name="20" x="1.3716" y="-6.0452" dx="1.7" dy="3.5" layer="16"/>
<smd name="21" x="4.1148" y="-6.0452" dx="1.7" dy="3.5" layer="16"/>
<smd name="22" x="6.858" y="-6.0452" dx="1.7" dy="3.5" layer="16"/>
<smd name="23" x="9.6012" y="-6.0452" dx="1.7" dy="3.5" layer="16"/>
<smd name="24" x="12.3444" y="-6.0452" dx="1.7" dy="3.5" layer="16"/>
<smd name="25" x="15.0876" y="-6.0452" dx="1.7" dy="3.5" layer="16"/>
<text x="-11.6332" y="-10.16" size="1.778" layer="25" ratio="10">&gt;NAME</text>
<text x="-1.4732" y="-10.16" size="1.778" layer="27" ratio="10">&gt;VALUE</text>
<text x="-16.8928" y="-2.1786" size="1.27" layer="21" ratio="10">1</text>
<text x="19.6596" y="-2.54" size="1.27" layer="48">Board</text>
<text x="-17.2212" y="4.5974" size="1.27" layer="51" ratio="10">F25D</text>
<text x="15.5578" y="-2.0786" size="1.27" layer="21" ratio="10">13</text>
<text x="15.9146" y="-0.825" size="1.27" layer="22" ratio="10" rot="MR0">25</text>
<text x="-14.0496" y="-0.825" size="1.27" layer="22" ratio="10" rot="MR0">14</text>
<text x="-24.7396" y="-2.54" size="1.27" layer="48">Board </text>
<rectangle x1="-17.0592" y1="-6.56" x2="-15.8592" y2="-4.06" layer="51"/>
<rectangle x1="-15.6876" y1="-6.56" x2="-14.4876" y2="-4.06" layer="52"/>
<rectangle x1="-12.9444" y1="-6.56" x2="-11.7444" y2="-4.06" layer="52"/>
<rectangle x1="-10.2012" y1="-6.56" x2="-9.0012" y2="-4.06" layer="52"/>
<rectangle x1="-14.316" y1="-6.56" x2="-13.116" y2="-4.06" layer="51"/>
<rectangle x1="-11.5728" y1="-6.56" x2="-10.3728" y2="-4.06" layer="51"/>
<rectangle x1="-8.8296" y1="-6.56" x2="-7.6296" y2="-4.06" layer="51"/>
<rectangle x1="-6.0864" y1="-6.56" x2="-4.8864" y2="-4.06" layer="51"/>
<rectangle x1="-7.458" y1="-6.56" x2="-6.258" y2="-4.06" layer="52"/>
<rectangle x1="-4.7148" y1="-6.56" x2="-3.5148" y2="-4.06" layer="52"/>
<rectangle x1="-1.9716" y1="-6.56" x2="-0.7716" y2="-4.06" layer="52"/>
<rectangle x1="0.7716" y1="-6.56" x2="1.9716" y2="-4.06" layer="52"/>
<rectangle x1="-3.3432" y1="-6.56" x2="-2.1432" y2="-4.06" layer="51"/>
<rectangle x1="-0.6" y1="-6.56" x2="0.6" y2="-4.06" layer="51"/>
<rectangle x1="2.1432" y1="-6.56" x2="3.3432" y2="-4.06" layer="51"/>
<rectangle x1="-26.6" y1="0.7" x2="26.6" y2="1.3" layer="21"/>
<rectangle x1="-17.4" y1="-4.1" x2="17.4" y2="-2.5" layer="21"/>
<rectangle x1="3.5148" y1="-6.56" x2="4.7148" y2="-4.06" layer="52"/>
<rectangle x1="4.8864" y1="-6.56" x2="6.0864" y2="-4.06" layer="51"/>
<rectangle x1="7.6296" y1="-6.56" x2="8.8296" y2="-4.06" layer="51"/>
<rectangle x1="6.258" y1="-6.56" x2="7.458" y2="-4.06" layer="52"/>
<rectangle x1="9.0012" y1="-6.56" x2="10.2012" y2="-4.06" layer="52"/>
<rectangle x1="11.7444" y1="-6.56" x2="12.9444" y2="-4.06" layer="52"/>
<rectangle x1="10.3728" y1="-6.56" x2="11.5728" y2="-4.06" layer="51"/>
<rectangle x1="13.116" y1="-6.56" x2="14.316" y2="-4.06" layer="51"/>
<rectangle x1="14.4876" y1="-6.56" x2="15.6876" y2="-4.06" layer="52"/>
<rectangle x1="15.8592" y1="-6.56" x2="17.0592" y2="-4.06" layer="51"/>
</package>
</packages>
<packages3d>
<package3d name="F25D" urn="urn:adsk.eagle:package:10286/1" type="box" library_version="2">
<description>SUB-D</description>
<packageinstances>
<packageinstance name="F25D"/>
</packageinstances>
</package3d>
</packages3d>
</library>
<library name="con-hirschmann" urn="urn:adsk.eagle:library:153">
<description>&lt;b&gt;Hirschmann Connectors&lt;/b&gt;&lt;p&gt;
Audio, scart, microphone, headphone&lt;p&gt;
&lt;author&gt;Created by librarian@cadsoft.de&lt;/author&gt;</description>
<packages>
<package name="MAB5SH" urn="urn:adsk.eagle:footprint:7402/1" library_version="2">
<description>Female &lt;b&gt;CONNECTOR&lt;/b&gt;&lt;p&gt;
5 pins 90 deg. with shield, horizontal (DIN 41524)</description>
<wire x1="-10.668" y1="-7.62" x2="9.779" y2="-7.62" width="0.1524" layer="21"/>
<wire x1="6.096" y1="8.636" x2="7.112" y2="6.35" width="0.1524" layer="51"/>
<wire x1="8.763" y1="6.35" x2="7.112" y2="6.35" width="0.1524" layer="51"/>
<wire x1="8.763" y1="6.35" x2="9.779" y2="2.54" width="0.1524" layer="21"/>
<wire x1="7.62" y1="-5.715" x2="7.62" y2="-2.159" width="0.1524" layer="21"/>
<wire x1="9.779" y1="-2.159" x2="7.62" y2="-2.159" width="0.1524" layer="21"/>
<wire x1="9.779" y1="-2.159" x2="9.779" y2="2.54" width="0.1524" layer="21"/>
<wire x1="9.779" y1="-7.62" x2="9.779" y2="-6.858" width="0.1524" layer="21"/>
<wire x1="10.668" y1="-6.858" x2="9.779" y2="-6.858" width="0.1524" layer="21"/>
<wire x1="10.668" y1="-6.858" x2="10.668" y2="-6.35" width="0.1524" layer="21"/>
<wire x1="10.668" y1="-6.35" x2="9.779" y2="-6.35" width="0.1524" layer="21"/>
<wire x1="9.779" y1="-5.715" x2="9.779" y2="-6.35" width="0.1524" layer="21"/>
<wire x1="9.779" y1="-5.715" x2="7.62" y2="-5.715" width="0.1524" layer="21"/>
<wire x1="7.112" y1="6.35" x2="6.35" y2="6.35" width="0.1524" layer="51"/>
<wire x1="6.35" y1="6.35" x2="3.175" y2="6.35" width="0.1524" layer="51"/>
<wire x1="1.905" y1="6.35" x2="1.905" y2="4.445" width="0.1524" layer="21"/>
<wire x1="6.096" y1="8.636" x2="1.905" y2="8.636" width="0.1524" layer="51"/>
<wire x1="1.905" y1="8.636" x2="0.635" y2="8.636" width="0.1524" layer="21"/>
<wire x1="1.905" y1="8.636" x2="1.905" y2="7.112" width="0.1524" layer="21"/>
<wire x1="-1.905" y1="8.636" x2="-1.905" y2="7.112" width="0.1524" layer="21"/>
<wire x1="-1.905" y1="8.636" x2="-6.223" y2="8.636" width="0.1524" layer="51"/>
<wire x1="-1.905" y1="6.477" x2="-3.175" y2="6.477" width="0.1524" layer="21"/>
<wire x1="-1.905" y1="6.477" x2="-1.905" y2="4.572" width="0.1524" layer="21"/>
<wire x1="-6.35" y1="6.477" x2="-6.35" y2="2.54" width="0.1524" layer="51"/>
<wire x1="-6.35" y1="6.477" x2="-7.112" y2="6.477" width="0.1524" layer="51"/>
<wire x1="6.35" y1="6.35" x2="6.35" y2="2.54" width="0.1524" layer="51"/>
<wire x1="9.779" y1="2.54" x2="7.62" y2="2.54" width="0.1524" layer="21"/>
<wire x1="7.62" y1="2.54" x2="1.905" y2="2.54" width="0.1524" layer="21"/>
<wire x1="1.905" y1="2.54" x2="-1.905" y2="2.54" width="0.1524" layer="21"/>
<wire x1="-1.905" y1="2.54" x2="-7.62" y2="2.54" width="0.1524" layer="21"/>
<wire x1="-7.62" y1="2.54" x2="-9.779" y2="2.54" width="0.1524" layer="21"/>
<wire x1="-10.668" y1="-7.62" x2="-10.668" y2="-6.858" width="0.1524" layer="21"/>
<wire x1="-9.525" y1="-6.858" x2="-10.668" y2="-6.858" width="0.1524" layer="21"/>
<wire x1="-9.525" y1="-6.858" x2="-9.525" y2="-6.35" width="0.1524" layer="21"/>
<wire x1="-10.668" y1="-6.35" x2="-9.525" y2="-6.35" width="0.1524" layer="21"/>
<wire x1="-10.668" y1="-6.35" x2="-10.668" y2="-5.715" width="0.1524" layer="21"/>
<wire x1="-7.62" y1="-5.715" x2="-10.668" y2="-5.715" width="0.1524" layer="21"/>
<wire x1="-7.62" y1="-5.715" x2="-7.62" y2="-2.159" width="0.1524" layer="21"/>
<wire x1="-9.779" y1="-2.159" x2="-7.62" y2="-2.159" width="0.1524" layer="21"/>
<wire x1="-9.779" y1="-2.159" x2="-9.779" y2="2.54" width="0.1524" layer="21"/>
<wire x1="-8.763" y1="6.477" x2="-9.779" y2="2.54" width="0.1524" layer="21"/>
<wire x1="-7.112" y1="6.477" x2="-6.223" y2="8.636" width="0.1524" layer="51"/>
<wire x1="-8.763" y1="6.477" x2="-7.112" y2="6.477" width="0.1524" layer="51"/>
<wire x1="7.62" y1="-2.159" x2="7.62" y2="-1.397" width="0.1524" layer="21"/>
<wire x1="7.62" y1="2.54" x2="7.62" y2="1.397" width="0.1524" layer="21"/>
<wire x1="7.62" y1="1.397" x2="7.62" y2="-1.397" width="0.1524" layer="51"/>
<wire x1="-7.62" y1="-2.159" x2="-7.62" y2="-1.397" width="0.1524" layer="21"/>
<wire x1="-7.62" y1="2.54" x2="-7.62" y2="1.397" width="0.1524" layer="21"/>
<wire x1="-7.62" y1="1.397" x2="-7.62" y2="-1.397" width="0.1524" layer="51"/>
<wire x1="-3.175" y1="6.477" x2="-3.175" y2="4.572" width="0.1524" layer="21"/>
<wire x1="-3.175" y1="6.477" x2="-6.35" y2="6.477" width="0.1524" layer="51"/>
<wire x1="-1.905" y1="4.572" x2="-3.175" y2="4.572" width="0.1524" layer="21"/>
<wire x1="-1.905" y1="4.572" x2="-1.905" y2="2.54" width="0.1524" layer="21"/>
<wire x1="1.905" y1="4.445" x2="3.175" y2="4.445" width="0.1524" layer="21"/>
<wire x1="1.905" y1="4.445" x2="1.905" y2="2.54" width="0.1524" layer="21"/>
<wire x1="3.175" y1="6.35" x2="3.175" y2="4.445" width="0.1524" layer="21"/>
<wire x1="3.175" y1="6.35" x2="1.905" y2="6.35" width="0.1524" layer="21"/>
<wire x1="-1.905" y1="7.112" x2="-0.635" y2="7.112" width="0.1524" layer="21"/>
<wire x1="-1.905" y1="7.112" x2="-1.905" y2="6.477" width="0.1524" layer="21"/>
<wire x1="-0.635" y1="8.636" x2="-0.635" y2="7.112" width="0.1524" layer="21"/>
<wire x1="-0.635" y1="8.636" x2="-1.905" y2="8.636" width="0.1524" layer="21"/>
<wire x1="1.905" y1="7.112" x2="0.635" y2="7.112" width="0.1524" layer="21"/>
<wire x1="1.905" y1="7.112" x2="1.905" y2="6.35" width="0.1524" layer="21"/>
<wire x1="0.635" y1="8.636" x2="0.635" y2="7.112" width="0.1524" layer="21"/>
<wire x1="0.635" y1="8.636" x2="-0.635" y2="8.636" width="0.1524" layer="21"/>
<wire x1="-7.493" y1="-5.715" x2="-3.683" y2="-5.715" width="0.1524" layer="21"/>
<wire x1="-1.397" y1="-5.715" x2="-3.683" y2="-5.715" width="0.1524" layer="51"/>
<wire x1="-1.397" y1="-5.715" x2="1.397" y2="-5.715" width="0.1524" layer="21"/>
<wire x1="3.683" y1="-5.715" x2="1.397" y2="-5.715" width="0.1524" layer="51"/>
<wire x1="3.683" y1="-5.715" x2="7.62" y2="-5.715" width="0.1524" layer="21"/>
<pad name="2" x="0" y="5.08" drill="1.3208" shape="long" rot="R90"/>
<pad name="1" x="7.62" y="5.08" drill="1.3208" shape="octagon"/>
<pad name="3" x="-7.62" y="5.08" drill="1.3208" shape="octagon"/>
<pad name="4" x="5.08" y="7.62" drill="1.3208" shape="octagon"/>
<pad name="5" x="-5.08" y="7.62" drill="1.3208" shape="octagon"/>
<pad name="PE@" x="2.54" y="-5.08" drill="1.3208" shape="octagon"/>
<pad name="PE" x="-2.54" y="-5.08" drill="1.3208" shape="octagon"/>
<text x="-6.096" y="9.144" size="1.778" layer="25" ratio="10">&gt;NAME</text>
<text x="-1.651" y="2.794" size="1.27" layer="21" ratio="10">2</text>
<text x="7.239" y="6.985" size="1.27" layer="21" ratio="10">4</text>
<text x="-8.255" y="6.985" size="1.27" layer="21" ratio="10">5</text>
<text x="-6.223" y="2.794" size="1.27" layer="21" ratio="10">3</text>
<text x="5.08" y="2.794" size="1.27" layer="21" ratio="10">1</text>
<text x="-5.08" y="0" size="1.778" layer="27" ratio="10">&gt;VALUE</text>
<rectangle x1="3.175" y1="4.572" x2="8.001" y2="5.588" layer="51"/>
<rectangle x1="0.635" y1="7.112" x2="5.461" y2="8.128" layer="51"/>
<rectangle x1="-5.461" y1="7.112" x2="-0.635" y2="8.128" layer="51"/>
<rectangle x1="-8.001" y1="4.572" x2="-3.175" y2="5.588" layer="51"/>
<hole x="7.62" y="0" drill="2.794"/>
<hole x="-7.62" y="0" drill="2.794"/>
</package>
</packages>
<packages3d>
<package3d name="MAB5SH" urn="urn:adsk.eagle:package:7443/1" type="box" library_version="2">
<description>Female CONNECTOR
5 pins 90 deg. with shield, horizontal (DIN 41524)</description>
<packageinstances>
<packageinstance name="MAB5SH"/>
</packageinstances>
</package3d>
</packages3d>
</library>
<library name="rcl" urn="urn:adsk.eagle:library:334">
<description>&lt;b&gt;Resistors, Capacitors, Inductors&lt;/b&gt;&lt;p&gt;
Based on the previous libraries:
&lt;ul&gt;
&lt;li&gt;r.lbr
&lt;li&gt;cap.lbr 
&lt;li&gt;cap-fe.lbr
&lt;li&gt;captant.lbr
&lt;li&gt;polcap.lbr
&lt;li&gt;ipc-smd.lbr
&lt;/ul&gt;
All SMD packages are defined according to the IPC specifications and  CECC&lt;p&gt;
&lt;author&gt;Created by librarian@cadsoft.de&lt;/author&gt;&lt;p&gt;
&lt;p&gt;
for Electrolyt Capacitors see also :&lt;p&gt;
www.bccomponents.com &lt;p&gt;
www.panasonic.com&lt;p&gt;
www.kemet.com&lt;p&gt;
http://www.secc.co.jp/pdf/os_e/2004/e_os_all.pdf &lt;b&gt;(SANYO)&lt;/b&gt;
&lt;p&gt;
for trimmer refence see : &lt;u&gt;www.electrospec-inc.com/cross_references/trimpotcrossref.asp&lt;/u&gt;&lt;p&gt;

&lt;table border=0 cellspacing=0 cellpadding=0 width="100%" cellpaddding=0&gt;
&lt;tr valign="top"&gt;

&lt;! &lt;td width="10"&gt;&amp;nbsp;&lt;/td&gt;
&lt;td width="90%"&gt;

&lt;b&gt;&lt;font color="#0000FF" size="4"&gt;TRIM-POT CROSS REFERENCE&lt;/font&gt;&lt;/b&gt;
&lt;P&gt;
&lt;TABLE BORDER=0 CELLSPACING=1 CELLPADDING=2&gt;
  &lt;TR&gt;
    &lt;TD COLSPAN=8&gt;
      &lt;FONT SIZE=3 FACE=ARIAL&gt;&lt;B&gt;RECTANGULAR MULTI-TURN&lt;/B&gt;&lt;/FONT&gt;
    &lt;/TD&gt;
  &lt;/TR&gt;
  &lt;TR&gt;
    &lt;TD ALIGN=CENTER&gt;
      &lt;B&gt;
      &lt;FONT SIZE=3 FACE=ARIAL color="#FF0000"&gt;BOURNS&lt;/FONT&gt;
      &lt;/B&gt;
    &lt;/TD&gt;
    &lt;TD ALIGN=CENTER&gt;
      &lt;B&gt;
      &lt;FONT SIZE=3 FACE=ARIAL color="#FF0000"&gt;BI&amp;nbsp;TECH&lt;/FONT&gt;
      &lt;/B&gt;
    &lt;/TD&gt;
    &lt;TD ALIGN=CENTER&gt;
      &lt;B&gt;
      &lt;FONT SIZE=3 FACE=ARIAL color="#FF0000"&gt;DALE-VISHAY&lt;/FONT&gt;
      &lt;/B&gt;
    &lt;/TD&gt;
    &lt;TD ALIGN=CENTER&gt;
      &lt;B&gt;
      &lt;FONT SIZE=3 FACE=ARIAL color="#FF0000"&gt;PHILIPS/MEPCO&lt;/FONT&gt;
      &lt;/B&gt;
    &lt;/TD&gt;
    &lt;TD ALIGN=CENTER&gt;
      &lt;B&gt;
      &lt;FONT SIZE=3 FACE=ARIAL color="#FF0000"&gt;MURATA&lt;/FONT&gt;
      &lt;/B&gt;
    &lt;/TD&gt;
    &lt;TD ALIGN=CENTER&gt;
      &lt;B&gt;
      &lt;FONT SIZE=3 FACE=ARIAL color="#FF0000"&gt;PANASONIC&lt;/FONT&gt;
      &lt;/B&gt;
    &lt;/TD&gt;
    &lt;TD ALIGN=CENTER&gt;
      &lt;B&gt;
      &lt;FONT SIZE=3 FACE=ARIAL color="#FF0000"&gt;SPECTROL&lt;/FONT&gt;
      &lt;/B&gt;
    &lt;/TD&gt;
    &lt;TD ALIGN=CENTER&gt;
      &lt;B&gt;
      &lt;FONT SIZE=3 FACE=ARIAL color="#FF0000"&gt;MILSPEC&lt;/FONT&gt;
      &lt;/B&gt;
    &lt;/TD&gt;&lt;TD&gt;&amp;nbsp;&lt;/TD&gt;
  &lt;/TR&gt;
  &lt;TR&gt;
    &lt;TD BGCOLOR="#cccccc" ALIGN=CENTER&gt;&lt;FONT FACE=ARIAL SIZE=3 &gt;
      3005P&lt;BR&gt;
      3006P&lt;BR&gt;
      3006W&lt;BR&gt;
      3006Y&lt;BR&gt;
      3009P&lt;BR&gt;
      3009W&lt;BR&gt;
      3009Y&lt;BR&gt;
      3057J&lt;BR&gt;
      3057L&lt;BR&gt;
      3057P&lt;BR&gt;
      3057Y&lt;BR&gt;
      3059J&lt;BR&gt;
      3059L&lt;BR&gt;
      3059P&lt;BR&gt;
      3059Y&lt;BR&gt;&lt;/FONT&gt;
    &lt;/TD&gt;
    &lt;TD BGCOLOR="#cccccc" ALIGN=CENTER&gt;&lt;FONT FACE=ARIAL SIZE=3&gt;
      -&lt;BR&gt;
      89P&lt;BR&gt;
      89W&lt;BR&gt;
      89X&lt;BR&gt;
      89PH&lt;BR&gt;
      76P&lt;BR&gt;
      89XH&lt;BR&gt;
      78SLT&lt;BR&gt;
      78L&amp;nbsp;ALT&lt;BR&gt;
      56P&amp;nbsp;ALT&lt;BR&gt;
      78P&amp;nbsp;ALT&lt;BR&gt;
      T8S&lt;BR&gt;
      78L&lt;BR&gt;
      56P&lt;BR&gt;
      78P&lt;BR&gt;&lt;/FONT&gt;
    &lt;/TD&gt;
    &lt;TD BGCOLOR="#cccccc" ALIGN=CENTER&gt;&lt;FONT FACE=ARIAL SIZE=3&gt;
      -&lt;BR&gt;
      T18/784&lt;BR&gt;
      783&lt;BR&gt;
      781&lt;BR&gt;
      -&lt;BR&gt;
      -&lt;BR&gt;
      -&lt;BR&gt;
      2199&lt;BR&gt;
      1697/1897&lt;BR&gt;
      1680/1880&lt;BR&gt;
      2187&lt;BR&gt;
      -&lt;BR&gt;
      -&lt;BR&gt;
      -&lt;BR&gt;
      -&lt;BR&gt;&lt;/FONT&gt;
    &lt;/TD&gt;
    &lt;TD BGCOLOR="#cccccc" ALIGN=CENTER&gt;&lt;FONT FACE=ARIAL SIZE=3&gt;
      -&lt;BR&gt;
      8035EKP/CT20/RJ-20P&lt;BR&gt;
      -&lt;BR&gt;
      RJ-20X&lt;BR&gt;
      -&lt;BR&gt;
      -&lt;BR&gt;
      -&lt;BR&gt;
      1211L&lt;BR&gt;
      8012EKQ&amp;nbsp;ALT&lt;BR&gt;
      8012EKR&amp;nbsp;ALT&lt;BR&gt;
      1211P&lt;BR&gt;
      8012EKJ&lt;BR&gt;
      8012EKL&lt;BR&gt;
      8012EKQ&lt;BR&gt;
      8012EKR&lt;BR&gt;&lt;/FONT&gt;
    &lt;/TD&gt;
    &lt;TD BGCOLOR="#cccccc" ALIGN=CENTER&gt;&lt;FONT FACE=ARIAL SIZE=3&gt;
      -&lt;BR&gt;
      2101P&lt;BR&gt;
      2101W&lt;BR&gt;
      2101Y&lt;BR&gt;
      -&lt;BR&gt;
      -&lt;BR&gt;
      -&lt;BR&gt;
      -&lt;BR&gt;
      -&lt;BR&gt;
      -&lt;BR&gt;
      -&lt;BR&gt;
      -&lt;BR&gt;
      2102L&lt;BR&gt;
      2102S&lt;BR&gt;
      2102Y&lt;BR&gt;&lt;/FONT&gt;
    &lt;/TD&gt;
    &lt;TD BGCOLOR="#cccccc" ALIGN=CENTER&gt;&lt;FONT FACE=ARIAL SIZE=3&gt;
      -&lt;BR&gt;
      EVMCOG&lt;BR&gt;
      -&lt;BR&gt;
      -&lt;BR&gt;
      -&lt;BR&gt;
      -&lt;BR&gt;
      -&lt;BR&gt;
      -&lt;BR&gt;
      -&lt;BR&gt;
      -&lt;BR&gt;
      -&lt;BR&gt;
      -&lt;BR&gt;
      -&lt;BR&gt;
      -&lt;BR&gt;
      -&lt;BR&gt;&lt;/FONT&gt;
    &lt;/TD&gt;
    &lt;TD BGCOLOR="#cccccc" ALIGN=CENTER&gt;&lt;FONT FACE=ARIAL SIZE=3&gt;
      -&lt;BR&gt;
      43P&lt;BR&gt;
      43W&lt;BR&gt;
      43Y&lt;BR&gt;
      -&lt;BR&gt;
      -&lt;BR&gt;
      -&lt;BR&gt;
      -&lt;BR&gt;
      40L&lt;BR&gt;
      40P&lt;BR&gt;
      40Y&lt;BR&gt;
      70Y-T602&lt;BR&gt;
      70L&lt;BR&gt;
      70P&lt;BR&gt;
      70Y&lt;BR&gt;&lt;/FONT&gt;
    &lt;/TD&gt;
    &lt;TD BGCOLOR="#cccccc" ALIGN=CENTER&gt;&lt;FONT FACE=ARIAL SIZE=3&gt;
      -&lt;BR&gt;
      -&lt;BR&gt;
      -&lt;BR&gt;
      -&lt;BR&gt;
      -&lt;BR&gt;
      -&lt;BR&gt;
      -&lt;BR&gt;
      -&lt;BR&gt;
      RT/RTR12&lt;BR&gt;
      RT/RTR12&lt;BR&gt;
      RT/RTR12&lt;BR&gt;
      -&lt;BR&gt;
      RJ/RJR12&lt;BR&gt;
      RJ/RJR12&lt;BR&gt;
      RJ/RJR12&lt;BR&gt;&lt;/FONT&gt;
    &lt;/TD&gt;
  &lt;/TR&gt;
  &lt;TR&gt;
    &lt;TD COLSPAN=8&gt;&amp;nbsp;
    &lt;/TD&gt;
  &lt;/TR&gt;
  &lt;TR&gt;
    &lt;TD COLSPAN=8&gt;
      &lt;FONT SIZE=4 FACE=ARIAL&gt;&lt;B&gt;SQUARE MULTI-TURN&lt;/B&gt;&lt;/FONT&gt;
    &lt;/TD&gt;
  &lt;/TR&gt;
  &lt;TR&gt;
   &lt;TD ALIGN=CENTER&gt;
      &lt;FONT SIZE=3 FACE=ARIAL&gt;&lt;B&gt;BOURN&lt;/B&gt;&lt;/FONT&gt;
    &lt;/TD&gt;
    &lt;TD ALIGN=CENTER&gt;
      &lt;FONT SIZE=3 FACE=ARIAL&gt;&lt;B&gt;BI&amp;nbsp;TECH&lt;/B&gt;&lt;/FONT&gt;
    &lt;/TD&gt;
    &lt;TD ALIGN=CENTER&gt;
      &lt;FONT SIZE=3 FACE=ARIAL&gt;&lt;B&gt;DALE-VISHAY&lt;/B&gt;&lt;/FONT&gt;
    &lt;/TD&gt;
    &lt;TD ALIGN=CENTER&gt;
      &lt;FONT SIZE=3 FACE=ARIAL&gt;&lt;B&gt;PHILIPS/MEPCO&lt;/B&gt;&lt;/FONT&gt;
    &lt;/TD&gt;
    &lt;TD ALIGN=CENTER&gt;
      &lt;FONT SIZE=3 FACE=ARIAL&gt;&lt;B&gt;MURATA&lt;/B&gt;&lt;/FONT&gt;
    &lt;/TD&gt;
    &lt;TD ALIGN=CENTER&gt;
      &lt;FONT SIZE=3 FACE=ARIAL&gt;&lt;B&gt;PANASONIC&lt;/B&gt;&lt;/FONT&gt;
    &lt;/TD&gt;
    &lt;TD ALIGN=CENTER&gt;
      &lt;FONT SIZE=3 FACE=ARIAL&gt;&lt;B&gt;SPECTROL&lt;/B&gt;&lt;/FONT&gt;
    &lt;/TD&gt;
    &lt;TD ALIGN=CENTER&gt;
      &lt;FONT SIZE=3 FACE=ARIAL&gt;&lt;B&gt;MILSPEC&lt;/B&gt;&lt;/FONT&gt;
    &lt;/TD&gt;
  &lt;/TR&gt;
  &lt;TR&gt;
    &lt;TD BGCOLOR="#cccccc" ALIGN=CENTER&gt;&lt;FONT FACE=ARIAL SIZE=3&gt;
      3250L&lt;BR&gt;
      3250P&lt;BR&gt;
      3250W&lt;BR&gt;
      3250X&lt;BR&gt;
      3252P&lt;BR&gt;
      3252W&lt;BR&gt;
      3252X&lt;BR&gt;
      3260P&lt;BR&gt;
      3260W&lt;BR&gt;
      3260X&lt;BR&gt;
      3262P&lt;BR&gt;
      3262W&lt;BR&gt;
      3262X&lt;BR&gt;
      3266P&lt;BR&gt;
      3266W&lt;BR&gt;
      3266X&lt;BR&gt;
      3290H&lt;BR&gt;
      3290P&lt;BR&gt;
      3290W&lt;BR&gt;
      3292P&lt;BR&gt;
      3292W&lt;BR&gt;
      3292X&lt;BR&gt;
      3296P&lt;BR&gt;
      3296W&lt;BR&gt;
      3296X&lt;BR&gt;
      3296Y&lt;BR&gt;
      3296Z&lt;BR&gt;
      3299P&lt;BR&gt;
      3299W&lt;BR&gt;
      3299X&lt;BR&gt;
      3299Y&lt;BR&gt;
      3299Z&lt;BR&gt;&lt;/FONT&gt;
    &lt;/TD&gt;
    &lt;TD BGCOLOR="#cccccc" ALIGN=CENTER&gt;&lt;FONT FACE=ARIAL SIZE=3&gt;
      -&lt;BR&gt;
      66P&amp;nbsp;ALT&lt;BR&gt;
      66W&amp;nbsp;ALT&lt;BR&gt;
      66X&amp;nbsp;ALT&lt;BR&gt;
      66P&amp;nbsp;ALT&lt;BR&gt;
      66W&amp;nbsp;ALT&lt;BR&gt;
      66X&amp;nbsp;ALT&lt;BR&gt;
      -&lt;BR&gt;
      64W&amp;nbsp;ALT&lt;BR&gt;
      -&lt;BR&gt;
      64P&amp;nbsp;ALT&lt;BR&gt;
      64W&amp;nbsp;ALT&lt;BR&gt;
      64X&amp;nbsp;ALT&lt;BR&gt;
      64P&lt;BR&gt;
      64W&lt;BR&gt;
      64X&lt;BR&gt;
      66X&amp;nbsp;ALT&lt;BR&gt;
      66P&amp;nbsp;ALT&lt;BR&gt;
      66W&amp;nbsp;ALT&lt;BR&gt;
      66P&lt;BR&gt;
      66W&lt;BR&gt;
      66X&lt;BR&gt;
      67P&lt;BR&gt;
      67W&lt;BR&gt;
      67X&lt;BR&gt;
      67Y&lt;BR&gt;
      67Z&lt;BR&gt;
      68P&lt;BR&gt;
      68W&lt;BR&gt;
      68X&lt;BR&gt;
      67Y&amp;nbsp;ALT&lt;BR&gt;
      67Z&amp;nbsp;ALT&lt;BR&gt;&lt;/FONT&gt;
    &lt;/TD&gt;
    &lt;TD BGCOLOR="#cccccc" ALIGN=CENTER&gt;&lt;FONT FACE=ARIAL SIZE=3&gt;
      5050&lt;BR&gt;
      5091&lt;BR&gt;
      5080&lt;BR&gt;
      5087&lt;BR&gt;
      -&lt;BR&gt;
      -&lt;BR&gt;
      -&lt;BR&gt;
      -&lt;BR&gt;
      -&lt;BR&gt;
      -&lt;BR&gt;
      -&lt;BR&gt;
      T63YB&lt;BR&gt;
      T63XB&lt;BR&gt;
      -&lt;BR&gt;
      -&lt;BR&gt;
      -&lt;BR&gt;
      5887&lt;BR&gt;
      5891&lt;BR&gt;
      5880&lt;BR&gt;
      -&lt;BR&gt;
      -&lt;BR&gt;
      -&lt;BR&gt;
      T93Z&lt;BR&gt;
      T93YA&lt;BR&gt;
      T93XA&lt;BR&gt;
      T93YB&lt;BR&gt;
      T93XB&lt;BR&gt;
      -&lt;BR&gt;
      -&lt;BR&gt;
      -&lt;BR&gt;
      -&lt;BR&gt;
      -&lt;BR&gt;&lt;/FONT&gt;
    &lt;/TD&gt;
    &lt;TD BGCOLOR="#cccccc" ALIGN=CENTER&gt;&lt;FONT FACE=ARIAL SIZE=3&gt;
      -&lt;BR&gt;
      -&lt;BR&gt;
      -&lt;BR&gt;
      -&lt;BR&gt;
      -&lt;BR&gt;
      -&lt;BR&gt;
      -&lt;BR&gt;
      -&lt;BR&gt;
      -&lt;BR&gt;
      -&lt;BR&gt;
      8026EKP&lt;BR&gt;
      8026EKW&lt;BR&gt;
      8026EKM&lt;BR&gt;
      8026EKP&lt;BR&gt;
      8026EKB&lt;BR&gt;
      8026EKM&lt;BR&gt;
      1309X&lt;BR&gt;
      1309P&lt;BR&gt;
      1309W&lt;BR&gt;
      8024EKP&lt;BR&gt;
      8024EKW&lt;BR&gt;
      8024EKN&lt;BR&gt;
      RJ-9P/CT9P&lt;BR&gt;
      RJ-9W&lt;BR&gt;
      RJ-9X&lt;BR&gt;
      -&lt;BR&gt;
      -&lt;BR&gt;
      -&lt;BR&gt;
      -&lt;BR&gt;
      -&lt;BR&gt;
      -&lt;BR&gt;
      -&lt;BR&gt;&lt;/FONT&gt;
    &lt;/TD&gt;
    &lt;TD BGCOLOR="#cccccc" ALIGN=CENTER&gt;&lt;FONT FACE=ARIAL SIZE=3&gt;
      -&lt;BR&gt;
      -&lt;BR&gt;
      -&lt;BR&gt;
      -&lt;BR&gt;
      -&lt;BR&gt;
      -&lt;BR&gt;
      -&lt;BR&gt;
      -&lt;BR&gt;
      -&lt;BR&gt;
      -&lt;BR&gt;
      3103P&lt;BR&gt;
      3103Y&lt;BR&gt;
      3103Z&lt;BR&gt;
      3103P&lt;BR&gt;
      3103Y&lt;BR&gt;
      3103Z&lt;BR&gt;
      -&lt;BR&gt;
      -&lt;BR&gt;
      -&lt;BR&gt;
      -&lt;BR&gt;
      -&lt;BR&gt;
      -&lt;BR&gt;
      3105P/3106P&lt;BR&gt;
      3105W/3106W&lt;BR&gt;
      3105X/3106X&lt;BR&gt;
      3105Y/3106Y&lt;BR&gt;
      3105Z/3105Z&lt;BR&gt;
      3102P&lt;BR&gt;
      3102W&lt;BR&gt;
      3102X&lt;BR&gt;
      3102Y&lt;BR&gt;
      3102Z&lt;BR&gt;&lt;/FONT&gt;
    &lt;/TD&gt;
    &lt;TD BGCOLOR="#cccccc" ALIGN=CENTER&gt;&lt;FONT FACE=ARIAL SIZE=3&gt;
      -&lt;BR&gt;
      -&lt;BR&gt;
      -&lt;BR&gt;
      -&lt;BR&gt;
      -&lt;BR&gt;
      -&lt;BR&gt;
      -&lt;BR&gt;
      -&lt;BR&gt;
      -&lt;BR&gt;
      -&lt;BR&gt;
      -&lt;BR&gt;
      -&lt;BR&gt;
      -&lt;BR&gt;
      -&lt;BR&gt;
      -&lt;BR&gt;
      -&lt;BR&gt;
      -&lt;BR&gt;
      -&lt;BR&gt;
      -&lt;BR&gt;
      -&lt;BR&gt;
      -&lt;BR&gt;
      -&lt;BR&gt;
      EVMCBG&lt;BR&gt;
      EVMCCG&lt;BR&gt;
      -&lt;BR&gt;
      -&lt;BR&gt;
      -&lt;BR&gt;
      -&lt;BR&gt;
      -&lt;BR&gt;
      -&lt;BR&gt;
      -&lt;BR&gt;
      -&lt;BR&gt;&lt;/FONT&gt;
    &lt;/TD&gt;
    &lt;TD BGCOLOR="#cccccc" ALIGN=CENTER&gt;&lt;FONT FACE=ARIAL SIZE=3&gt;
      55-1-X&lt;BR&gt;
      55-4-X&lt;BR&gt;
      55-3-X&lt;BR&gt;
      55-2-X&lt;BR&gt;
      -&lt;BR&gt;
      -&lt;BR&gt;
      -&lt;BR&gt;
      -&lt;BR&gt;
      -&lt;BR&gt;
      -&lt;BR&gt;
      -&lt;BR&gt;
      -&lt;BR&gt;
      -&lt;BR&gt;
      -&lt;BR&gt;
      -&lt;BR&gt;
      -&lt;BR&gt;
      50-2-X&lt;BR&gt;
      50-4-X&lt;BR&gt;
      50-3-X&lt;BR&gt;
      -&lt;BR&gt;
      -&lt;BR&gt;
      -&lt;BR&gt;
      64P&lt;BR&gt;
      64W&lt;BR&gt;
      64X&lt;BR&gt;
      64Y&lt;BR&gt;
      64Z&lt;BR&gt;
      -&lt;BR&gt;
      -&lt;BR&gt;
      -&lt;BR&gt;
      -&lt;BR&gt;
      -&lt;BR&gt;&lt;/FONT&gt;
    &lt;/TD&gt;
    &lt;TD BGCOLOR="#cccccc" ALIGN=CENTER&gt;&lt;FONT FACE=ARIAL SIZE=3&gt;
      RT/RTR22&lt;BR&gt;
      RT/RTR22&lt;BR&gt;
      RT/RTR22&lt;BR&gt;
      RT/RTR22&lt;BR&gt;
      RJ/RJR22&lt;BR&gt;
      RJ/RJR22&lt;BR&gt;
      RJ/RJR22&lt;BR&gt;
      RT/RTR26&lt;BR&gt;
      RT/RTR26&lt;BR&gt;
      RT/RTR26&lt;BR&gt;
      RJ/RJR26&lt;BR&gt;
      RJ/RJR26&lt;BR&gt;
      RJ/RJR26&lt;BR&gt;
      RJ/RJR26&lt;BR&gt;
      RJ/RJR26&lt;BR&gt;
      RJ/RJR26&lt;BR&gt;
      RT/RTR24&lt;BR&gt;
      RT/RTR24&lt;BR&gt;
      RT/RTR24&lt;BR&gt;
      RJ/RJR24&lt;BR&gt;
      RJ/RJR24&lt;BR&gt;
      RJ/RJR24&lt;BR&gt;
      RJ/RJR24&lt;BR&gt;
      RJ/RJR24&lt;BR&gt;
      RJ/RJR24&lt;BR&gt;
      -&lt;BR&gt;
      -&lt;BR&gt;
      -&lt;BR&gt;
      -&lt;BR&gt;
      -&lt;BR&gt;
      -&lt;BR&gt;
      -&lt;BR&gt;&lt;/FONT&gt;
    &lt;/TD&gt;
  &lt;/TR&gt;
  &lt;TR&gt;
    &lt;TD COLSPAN=8&gt;&amp;nbsp;
    &lt;/TD&gt;
  &lt;/TR&gt;
  &lt;TR&gt;
    &lt;TD COLSPAN=8&gt;
      &lt;FONT SIZE=4 FACE=ARIAL&gt;&lt;B&gt;SINGLE TURN&lt;/B&gt;&lt;/FONT&gt;
    &lt;/TD&gt;
  &lt;/TR&gt;
  &lt;TR&gt;
    &lt;TD ALIGN=CENTER&gt;
      &lt;FONT SIZE=3 FACE=ARIAL&gt;&lt;B&gt;BOURN&lt;/B&gt;&lt;/FONT&gt;
    &lt;/TD&gt;
    &lt;TD ALIGN=CENTER&gt;
      &lt;FONT SIZE=3 FACE=ARIAL&gt;&lt;B&gt;BI&amp;nbsp;TECH&lt;/B&gt;&lt;/FONT&gt;
    &lt;/TD&gt;
    &lt;TD ALIGN=CENTER&gt;
      &lt;FONT SIZE=3 FACE=ARIAL&gt;&lt;B&gt;DALE-VISHAY&lt;/B&gt;&lt;/FONT&gt;
    &lt;/TD&gt;
    &lt;TD ALIGN=CENTER&gt;
      &lt;FONT SIZE=3 FACE=ARIAL&gt;&lt;B&gt;PHILIPS/MEPCO&lt;/B&gt;&lt;/FONT&gt;
    &lt;/TD&gt;
    &lt;TD ALIGN=CENTER&gt;
      &lt;FONT SIZE=3 FACE=ARIAL&gt;&lt;B&gt;MURATA&lt;/B&gt;&lt;/FONT&gt;
    &lt;/TD&gt;
    &lt;TD ALIGN=CENTER&gt;
      &lt;FONT SIZE=3 FACE=ARIAL&gt;&lt;B&gt;PANASONIC&lt;/B&gt;&lt;/FONT&gt;
    &lt;/TD&gt;
    &lt;TD ALIGN=CENTER&gt;
      &lt;FONT SIZE=3 FACE=ARIAL&gt;&lt;B&gt;SPECTROL&lt;/B&gt;&lt;/FONT&gt;
    &lt;/TD&gt;
    &lt;TD ALIGN=CENTER&gt;
      &lt;FONT SIZE=3 FACE=ARIAL&gt;&lt;B&gt;MILSPEC&lt;/B&gt;&lt;/FONT&gt;
    &lt;/TD&gt;
  &lt;/TR&gt;
  &lt;TR&gt;
    &lt;TD BGCOLOR="#cccccc" ALIGN=CENTER&gt;&lt;FONT FACE=ARIAL SIZE=3&gt;
      3323P&lt;BR&gt;
      3323S&lt;BR&gt;
      3323W&lt;BR&gt;
      3329H&lt;BR&gt;
      3329P&lt;BR&gt;
      3329W&lt;BR&gt;
      3339H&lt;BR&gt;
      3339P&lt;BR&gt;
      3339W&lt;BR&gt;
      3352E&lt;BR&gt;
      3352H&lt;BR&gt;
      3352K&lt;BR&gt;
      3352P&lt;BR&gt;
      3352T&lt;BR&gt;
      3352V&lt;BR&gt;
      3352W&lt;BR&gt;
      3362H&lt;BR&gt;
      3362M&lt;BR&gt;
      3362P&lt;BR&gt;
      3362R&lt;BR&gt;
      3362S&lt;BR&gt;
      3362U&lt;BR&gt;
      3362W&lt;BR&gt;
      3362X&lt;BR&gt;
      3386B&lt;BR&gt;
      3386C&lt;BR&gt;
      3386F&lt;BR&gt;
      3386H&lt;BR&gt;
      3386K&lt;BR&gt;
      3386M&lt;BR&gt;
      3386P&lt;BR&gt;
      3386S&lt;BR&gt;
      3386W&lt;BR&gt;
      3386X&lt;BR&gt;&lt;/FONT&gt;
    &lt;/TD&gt;
    &lt;TD BGCOLOR="#cccccc" ALIGN=CENTER&gt;&lt;FONT FACE=ARIAL SIZE=3&gt;
      25P&lt;BR&gt;
      25S&lt;BR&gt;
      25RX&lt;BR&gt;
      82P&lt;BR&gt;
      82M&lt;BR&gt;
      82PA&lt;BR&gt;
      -&lt;BR&gt;
      -&lt;BR&gt;
      -&lt;BR&gt;
      91E&lt;BR&gt;
      91X&lt;BR&gt;
      91T&lt;BR&gt;
      91B&lt;BR&gt;
      91A&lt;BR&gt;
      91V&lt;BR&gt;
      91W&lt;BR&gt;
      25W&lt;BR&gt;
      25V&lt;BR&gt;
      25P&lt;BR&gt;
      -&lt;BR&gt;
      25S&lt;BR&gt;
      25U&lt;BR&gt;
      25RX&lt;BR&gt;
      25X&lt;BR&gt;
      72XW&lt;BR&gt;
      72XL&lt;BR&gt;
      72PM&lt;BR&gt;
      72RX&lt;BR&gt;
      -&lt;BR&gt;
      72PX&lt;BR&gt;
      72P&lt;BR&gt;
      72RXW&lt;BR&gt;
      72RXL&lt;BR&gt;
      72X&lt;BR&gt;&lt;/FONT&gt;
    &lt;/TD&gt;
    &lt;TD BGCOLOR="#cccccc" ALIGN=CENTER&gt;&lt;FONT FACE=ARIAL SIZE=3&gt;
      -&lt;BR&gt;
      -&lt;BR&gt;
      -&lt;BR&gt;
      T7YB&lt;BR&gt;
      T7YA&lt;BR&gt;
      -&lt;BR&gt;
      -&lt;BR&gt;
      -&lt;BR&gt;
      -&lt;BR&gt;
      -&lt;BR&gt;
      -&lt;BR&gt;
      -&lt;BR&gt;
      -&lt;BR&gt;
      -&lt;BR&gt;
      -&lt;BR&gt;
      -&lt;BR&gt;
      -&lt;BR&gt;
      TXD&lt;BR&gt;
      TYA&lt;BR&gt;
      TYP&lt;BR&gt;
      -&lt;BR&gt;
      TYD&lt;BR&gt;
      TX&lt;BR&gt;
      -&lt;BR&gt;
      150SX&lt;BR&gt;
      100SX&lt;BR&gt;
      102T&lt;BR&gt;
      101S&lt;BR&gt;
      190T&lt;BR&gt;
      150TX&lt;BR&gt;
      101&lt;BR&gt;
      -&lt;BR&gt;
      -&lt;BR&gt;
      101SX&lt;BR&gt;&lt;/FONT&gt;
    &lt;/TD&gt;
    &lt;TD BGCOLOR="#cccccc" ALIGN=CENTER&gt;&lt;FONT FACE=ARIAL SIZE=3&gt;
      ET6P&lt;BR&gt;
      ET6S&lt;BR&gt;
      ET6X&lt;BR&gt;
      RJ-6W/8014EMW&lt;BR&gt;
      RJ-6P/8014EMP&lt;BR&gt;
      RJ-6X/8014EMX&lt;BR&gt;
      TM7W&lt;BR&gt;
      TM7P&lt;BR&gt;
      TM7X&lt;BR&gt;
      -&lt;BR&gt;
      8017SMS&lt;BR&gt;
      -&lt;BR&gt;
      8017SMB&lt;BR&gt;
      8017SMA&lt;BR&gt;
      -&lt;BR&gt;
      -&lt;BR&gt;
      CT-6W&lt;BR&gt;
      CT-6H&lt;BR&gt;
      CT-6P&lt;BR&gt;
      CT-6R&lt;BR&gt;
      -&lt;BR&gt;
      CT-6V&lt;BR&gt;
      CT-6X&lt;BR&gt;
      -&lt;BR&gt;
      -&lt;BR&gt;
      8038EKV&lt;BR&gt;
      -&lt;BR&gt;
      8038EKX&lt;BR&gt;
      -&lt;BR&gt;
      -&lt;BR&gt;
      8038EKP&lt;BR&gt;
      8038EKZ&lt;BR&gt;
      8038EKW&lt;BR&gt;
      -&lt;BR&gt;&lt;/FONT&gt;
    &lt;/TD&gt;
    &lt;TD BGCOLOR="#cccccc" ALIGN=CENTER&gt;&lt;FONT FACE=ARIAL SIZE=3&gt;
      -&lt;BR&gt;
      -&lt;BR&gt;
      -&lt;BR&gt;
      3321H&lt;BR&gt;
      3321P&lt;BR&gt;
      3321N&lt;BR&gt;
      1102H&lt;BR&gt;
      1102P&lt;BR&gt;
      1102T&lt;BR&gt;
      RVA0911V304A&lt;BR&gt;
      -&lt;BR&gt;
      RVA0911H413A&lt;BR&gt;
      RVG0707V100A&lt;BR&gt;
      RVA0607V(H)306A&lt;BR&gt;
      RVA1214H213A&lt;BR&gt;
      -&lt;BR&gt;
      -&lt;BR&gt;
      -&lt;BR&gt;
      -&lt;BR&gt;
      -&lt;BR&gt;
      -&lt;BR&gt;
      -&lt;BR&gt;
      -&lt;BR&gt;
      -&lt;BR&gt;
      3104B&lt;BR&gt;
      3104C&lt;BR&gt;
      3104F&lt;BR&gt;
      3104H&lt;BR&gt;
      -&lt;BR&gt;
      3104M&lt;BR&gt;
      3104P&lt;BR&gt;
      3104S&lt;BR&gt;
      3104W&lt;BR&gt;
      3104X&lt;BR&gt;&lt;/FONT&gt;
    &lt;/TD&gt;
    &lt;TD BGCOLOR="#cccccc" ALIGN=CENTER&gt;&lt;FONT FACE=ARIAL SIZE=3&gt;
      EVMQ0G&lt;BR&gt;
      EVMQIG&lt;BR&gt;
      EVMQ3G&lt;BR&gt;
      EVMS0G&lt;BR&gt;
      EVMQ0G&lt;BR&gt;
      EVMG0G&lt;BR&gt;
      -&lt;BR&gt;
      -&lt;BR&gt;
      -&lt;BR&gt;
      EVMK4GA00B&lt;BR&gt;
      EVM30GA00B&lt;BR&gt;
      EVMK0GA00B&lt;BR&gt;
      EVM38GA00B&lt;BR&gt;
      EVMB6&lt;BR&gt;
      EVLQ0&lt;BR&gt;
      -&lt;BR&gt;
      EVMMSG&lt;BR&gt;
      EVMMBG&lt;BR&gt;
      EVMMAG&lt;BR&gt;
      -&lt;BR&gt;
      -&lt;BR&gt;
      EVMMCS&lt;BR&gt;
      -&lt;BR&gt;
      -&lt;BR&gt;
      -&lt;BR&gt;
      -&lt;BR&gt;
      -&lt;BR&gt;
      EVMM1&lt;BR&gt;
      -&lt;BR&gt;
      -&lt;BR&gt;
      EVMM0&lt;BR&gt;
      -&lt;BR&gt;
      -&lt;BR&gt;
      EVMM3&lt;BR&gt;&lt;/FONT&gt;
    &lt;/TD&gt;
    &lt;TD BGCOLOR="#cccccc" ALIGN=CENTER&gt;&lt;FONT FACE=ARIAL SIZE=3&gt;
      -&lt;BR&gt;
      -&lt;BR&gt;
      -&lt;BR&gt;
      62-3-1&lt;BR&gt;
      62-1-2&lt;BR&gt;
      -&lt;BR&gt;
      -&lt;BR&gt;
      -&lt;BR&gt;
      -&lt;BR&gt;
      -&lt;BR&gt;
      -&lt;BR&gt;
      -&lt;BR&gt;
      -&lt;BR&gt;
      -&lt;BR&gt;
      -&lt;BR&gt;
      -&lt;BR&gt;
      67R&lt;BR&gt;
      -&lt;BR&gt;
      67P&lt;BR&gt;
      -&lt;BR&gt;
      -&lt;BR&gt;
      -&lt;BR&gt;
      -&lt;BR&gt;
      67X&lt;BR&gt;
      63V&lt;BR&gt;
      63S&lt;BR&gt;
      63M&lt;BR&gt;
      -&lt;BR&gt;
      -&lt;BR&gt;
      63H&lt;BR&gt;
      63P&lt;BR&gt;
      -&lt;BR&gt;
      -&lt;BR&gt;
      63X&lt;BR&gt;&lt;/FONT&gt;
    &lt;/TD&gt;
    &lt;TD BGCOLOR="#cccccc" ALIGN=CENTER&gt;&lt;FONT FACE=ARIAL SIZE=3&gt;
      -&lt;BR&gt;
      -&lt;BR&gt;
      -&lt;BR&gt;
      RJ/RJR50&lt;BR&gt;
      RJ/RJR50&lt;BR&gt;
      RJ/RJR50&lt;BR&gt;
      -&lt;BR&gt;
      -&lt;BR&gt;
      -&lt;BR&gt;
      -&lt;BR&gt;
      -&lt;BR&gt;
      -&lt;BR&gt;
      -&lt;BR&gt;
      -&lt;BR&gt;
      -&lt;BR&gt;
      -&lt;BR&gt;
      -&lt;BR&gt;
      -&lt;BR&gt;
      -&lt;BR&gt;
      -&lt;BR&gt;
      -&lt;BR&gt;
      -&lt;BR&gt;
      -&lt;BR&gt;
      -&lt;BR&gt;
      -&lt;BR&gt;
      -&lt;BR&gt;
      -&lt;BR&gt;
      -&lt;BR&gt;
      -&lt;BR&gt;
      -&lt;BR&gt;
      -&lt;BR&gt;
      -&lt;BR&gt;
      -&lt;BR&gt;
      -&lt;BR&gt;&lt;/FONT&gt;
    &lt;/TD&gt;
  &lt;/TR&gt;
&lt;/TABLE&gt;
&lt;P&gt;&amp;nbsp;&lt;P&gt;
&lt;TABLE BORDER=0 CELLSPACING=1 CELLPADDING=3&gt;
  &lt;TR&gt;
    &lt;TD COLSPAN=7&gt;
      &lt;FONT color="#0000FF" SIZE=4 FACE=ARIAL&gt;&lt;B&gt;SMD TRIM-POT CROSS REFERENCE&lt;/B&gt;&lt;/FONT&gt;
      &lt;P&gt;
      &lt;FONT SIZE=4 FACE=ARIAL&gt;&lt;B&gt;MULTI-TURN&lt;/B&gt;&lt;/FONT&gt;
    &lt;/TD&gt;
  &lt;/TR&gt;
  &lt;TR&gt;
    &lt;TD&gt;
      &lt;FONT SIZE=3 FACE=ARIAL&gt;&lt;B&gt;BOURNS&lt;/B&gt;&lt;/FONT&gt;
    &lt;/TD&gt;
    &lt;TD&gt;
      &lt;FONT SIZE=3 FACE=ARIAL&gt;&lt;B&gt;BI&amp;nbsp;TECH&lt;/B&gt;&lt;/FONT&gt;
    &lt;/TD&gt;
    &lt;TD&gt;
      &lt;FONT SIZE=3 FACE=ARIAL&gt;&lt;B&gt;DALE-VISHAY&lt;/B&gt;&lt;/FONT&gt;
    &lt;/TD&gt;
    &lt;TD&gt;
      &lt;FONT SIZE=3 FACE=ARIAL&gt;&lt;B&gt;PHILIPS/MEPCO&lt;/B&gt;&lt;/FONT&gt;
    &lt;/TD&gt;
    &lt;TD&gt;
      &lt;FONT SIZE=3 FACE=ARIAL&gt;&lt;B&gt;PANASONIC&lt;/B&gt;&lt;/FONT&gt;
    &lt;/TD&gt;
    &lt;TD&gt;
      &lt;FONT SIZE=3 FACE=ARIAL&gt;&lt;B&gt;TOCOS&lt;/B&gt;&lt;/FONT&gt;
    &lt;/TD&gt;
    &lt;TD&gt;
      &lt;FONT SIZE=3 FACE=ARIAL&gt;&lt;B&gt;AUX/KYOCERA&lt;/B&gt;&lt;/FONT&gt;
    &lt;/TD&gt;
  &lt;/TR&gt;
  &lt;TR&gt;
    &lt;TD BGCOLOR="#cccccc" ALIGN=CENTER&gt;&lt;FONT FACE=ARIAL SIZE=3&gt;
      3224G&lt;BR&gt;
      3224J&lt;BR&gt;
      3224W&lt;BR&gt;
      3269P&lt;BR&gt;
      3269W&lt;BR&gt;
      3269X&lt;BR&gt;&lt;/FONT&gt;
    &lt;/TD&gt;
    &lt;TD BGCOLOR="#cccccc" ALIGN=CENTER&gt;&lt;FONT FACE=ARIAL SIZE=3&gt;
      44G&lt;BR&gt;
      44J&lt;BR&gt;
      44W&lt;BR&gt;
      84P&lt;BR&gt;
      84W&lt;BR&gt;
      84X&lt;BR&gt;&lt;/FONT&gt;
    &lt;/TD&gt;
    &lt;TD BGCOLOR="#cccccc" ALIGN=CENTER&gt;&lt;FONT FACE=ARIAL SIZE=3&gt;
      -&lt;BR&gt;
      -&lt;BR&gt;
      -&lt;BR&gt;
      ST63Z&lt;BR&gt;
      ST63Y&lt;BR&gt;
      -&lt;BR&gt;&lt;/FONT&gt;
    &lt;/TD&gt;
    &lt;TD BGCOLOR="#cccccc" ALIGN=CENTER&gt;&lt;FONT FACE=ARIAL SIZE=3&gt;
      -&lt;BR&gt;
      -&lt;BR&gt;
      -&lt;BR&gt;
      ST5P&lt;BR&gt;
      ST5W&lt;BR&gt;
      ST5X&lt;BR&gt;&lt;/FONT&gt;
    &lt;/TD&gt;
    &lt;TD BGCOLOR="#cccccc" ALIGN=CENTER&gt;&lt;FONT FACE=ARIAL SIZE=3&gt;
      -&lt;BR&gt;
      -&lt;BR&gt;
      -&lt;BR&gt;
      -&lt;BR&gt;
      -&lt;BR&gt;
      -&lt;BR&gt;&lt;/FONT&gt;
    &lt;/TD&gt;
    &lt;TD BGCOLOR="#cccccc" ALIGN=CENTER&gt;&lt;FONT FACE=ARIAL SIZE=3&gt;
      -&lt;BR&gt;
      -&lt;BR&gt;
      -&lt;BR&gt;
      -&lt;BR&gt;
      -&lt;BR&gt;
      -&lt;BR&gt;&lt;/FONT&gt;
    &lt;/TD&gt;
    &lt;TD BGCOLOR="#cccccc" ALIGN=CENTER&gt;&lt;FONT FACE=ARIAL SIZE=3&gt;
      -&lt;BR&gt;
      -&lt;BR&gt;
      -&lt;BR&gt;
      -&lt;BR&gt;
      -&lt;BR&gt;
      -&lt;BR&gt;&lt;/FONT&gt;
    &lt;/TD&gt;
  &lt;/TR&gt;
  &lt;TR&gt;
    &lt;TD COLSPAN=7&gt;&amp;nbsp;
    &lt;/TD&gt;
  &lt;/TR&gt;
  &lt;TR&gt;
    &lt;TD COLSPAN=7&gt;
      &lt;FONT SIZE=4 FACE=ARIAL&gt;&lt;B&gt;SINGLE TURN&lt;/B&gt;&lt;/FONT&gt;
    &lt;/TD&gt;
  &lt;/TR&gt;
  &lt;TR&gt;
    &lt;TD&gt;
      &lt;FONT SIZE=3 FACE=ARIAL&gt;&lt;B&gt;BOURNS&lt;/B&gt;&lt;/FONT&gt;
    &lt;/TD&gt;
    &lt;TD&gt;
      &lt;FONT SIZE=3 FACE=ARIAL&gt;&lt;B&gt;BI&amp;nbsp;TECH&lt;/B&gt;&lt;/FONT&gt;
    &lt;/TD&gt;
    &lt;TD&gt;
      &lt;FONT SIZE=3 FACE=ARIAL&gt;&lt;B&gt;DALE-VISHAY&lt;/B&gt;&lt;/FONT&gt;
    &lt;/TD&gt;
    &lt;TD&gt;
      &lt;FONT SIZE=3 FACE=ARIAL&gt;&lt;B&gt;PHILIPS/MEPCO&lt;/B&gt;&lt;/FONT&gt;
    &lt;/TD&gt;
    &lt;TD&gt;
      &lt;FONT SIZE=3 FACE=ARIAL&gt;&lt;B&gt;PANASONIC&lt;/B&gt;&lt;/FONT&gt;
    &lt;/TD&gt;
    &lt;TD&gt;
      &lt;FONT SIZE=3 FACE=ARIAL&gt;&lt;B&gt;TOCOS&lt;/B&gt;&lt;/FONT&gt;
    &lt;/TD&gt;
    &lt;TD&gt;
      &lt;FONT SIZE=3 FACE=ARIAL&gt;&lt;B&gt;AUX/KYOCERA&lt;/B&gt;&lt;/FONT&gt;
    &lt;/TD&gt;
  &lt;/TR&gt;
  &lt;TR&gt;
    &lt;TD BGCOLOR="#cccccc" ALIGN=CENTER&gt;&lt;FONT FACE=ARIAL SIZE=3&gt;
      3314G&lt;BR&gt;
      3314J&lt;BR&gt;
      3364A/B&lt;BR&gt;
      3364C/D&lt;BR&gt;
      3364W/X&lt;BR&gt;
      3313G&lt;BR&gt;
      3313J&lt;BR&gt;&lt;/FONT&gt;
    &lt;/TD&gt;
    &lt;TD BGCOLOR="#cccccc" ALIGN=CENTER&gt;&lt;FONT FACE=ARIAL SIZE=3&gt;
      23B&lt;BR&gt;
      23A&lt;BR&gt;
      21X&lt;BR&gt;
      21W&lt;BR&gt;
      -&lt;BR&gt;
      22B&lt;BR&gt;
      22A&lt;BR&gt;&lt;/FONT&gt;
    &lt;/TD&gt;
    &lt;TD BGCOLOR="#cccccc" ALIGN=CENTER&gt;&lt;FONT FACE=ARIAL SIZE=3&gt;
      ST5YL/ST53YL&lt;BR&gt;
      ST5YJ/5T53YJ&lt;BR&gt;
      ST-23A&lt;BR&gt;
      ST-22B&lt;BR&gt;
      ST-22&lt;BR&gt;
      -&lt;BR&gt;
      -&lt;BR&gt;&lt;/FONT&gt;
    &lt;/TD&gt;
    &lt;TD BGCOLOR="#cccccc" ALIGN=CENTER&gt;&lt;FONT FACE=ARIAL SIZE=3&gt;
      ST-4B&lt;BR&gt;
      ST-4A&lt;BR&gt;
      -&lt;BR&gt;
      -&lt;BR&gt;
      -&lt;BR&gt;
      ST-3B&lt;BR&gt;
      ST-3A&lt;BR&gt;&lt;/FONT&gt;
    &lt;/TD&gt;
    &lt;TD BGCOLOR="#cccccc" ALIGN=CENTER&gt;&lt;FONT FACE=ARIAL SIZE=3&gt;
      -&lt;BR&gt;
      EVM-6YS&lt;BR&gt;
      EVM-1E&lt;BR&gt;
      EVM-1G&lt;BR&gt;
      EVM-1D&lt;BR&gt;
      -&lt;BR&gt;
      -&lt;BR&gt;&lt;/FONT&gt;
    &lt;/TD&gt;
    &lt;TD BGCOLOR="#cccccc" ALIGN=CENTER&gt;&lt;FONT FACE=ARIAL SIZE=3&gt;
      G4B&lt;BR&gt;
      G4A&lt;BR&gt;
      TR04-3S1&lt;BR&gt;
      TRG04-2S1&lt;BR&gt;
      -&lt;BR&gt;
      -&lt;BR&gt;
      -&lt;BR&gt;&lt;/FONT&gt;
    &lt;/TD&gt;
    &lt;TD BGCOLOR="#cccccc" ALIGN=CENTER&gt;&lt;FONT FACE=ARIAL SIZE=3&gt;
      -&lt;BR&gt;
      -&lt;BR&gt;
      DVR-43A&lt;BR&gt;
      CVR-42C&lt;BR&gt;
      CVR-42A/C&lt;BR&gt;
      -&lt;BR&gt;
      -&lt;BR&gt;&lt;/FONT&gt;
    &lt;/TD&gt;
  &lt;/TR&gt;
&lt;/TABLE&gt;
&lt;P&gt;
&lt;FONT SIZE=4 FACE=ARIAL&gt;&lt;B&gt;ALT =&amp;nbsp;ALTERNATE&lt;/B&gt;&lt;/FONT&gt;
&lt;P&gt;

&amp;nbsp;
&lt;P&gt;
&lt;/td&gt;
&lt;/tr&gt;
&lt;/table&gt;</description>
<packages>
<package name="R0805" urn="urn:adsk.eagle:footprint:23045/1" library_version="11">
<description>&lt;b&gt;RESISTOR&lt;/b&gt;&lt;p&gt;</description>
<wire x1="-0.41" y1="0.635" x2="0.41" y2="0.635" width="0.1524" layer="51"/>
<wire x1="-0.41" y1="-0.635" x2="0.41" y2="-0.635" width="0.1524" layer="51"/>
<wire x1="-1.973" y1="0.983" x2="1.973" y2="0.983" width="0.0508" layer="39"/>
<wire x1="1.973" y1="0.983" x2="1.973" y2="-0.983" width="0.0508" layer="39"/>
<wire x1="1.973" y1="-0.983" x2="-1.973" y2="-0.983" width="0.0508" layer="39"/>
<wire x1="-1.973" y1="-0.983" x2="-1.973" y2="0.983" width="0.0508" layer="39"/>
<smd name="1" x="-0.95" y="0" dx="1.3" dy="1.5" layer="1"/>
<smd name="2" x="0.95" y="0" dx="1.3" dy="1.5" layer="1"/>
<text x="-0.635" y="1.27" size="1.27" layer="25">&gt;NAME</text>
<text x="-0.635" y="-2.54" size="1.27" layer="27">&gt;VALUE</text>
<rectangle x1="0.4064" y1="-0.6985" x2="1.0564" y2="0.7015" layer="51"/>
<rectangle x1="-1.0668" y1="-0.6985" x2="-0.4168" y2="0.7015" layer="51"/>
<rectangle x1="-0.1999" y1="-0.5001" x2="0.1999" y2="0.5001" layer="35"/>
</package>
<package name="C0805" urn="urn:adsk.eagle:footprint:23124/1" library_version="11">
<description>&lt;b&gt;CAPACITOR&lt;/b&gt;&lt;p&gt;</description>
<wire x1="-1.973" y1="0.983" x2="1.973" y2="0.983" width="0.0508" layer="39"/>
<wire x1="1.973" y1="-0.983" x2="-1.973" y2="-0.983" width="0.0508" layer="39"/>
<wire x1="-1.973" y1="-0.983" x2="-1.973" y2="0.983" width="0.0508" layer="39"/>
<wire x1="-0.381" y1="0.66" x2="0.381" y2="0.66" width="0.1016" layer="51"/>
<wire x1="-0.356" y1="-0.66" x2="0.381" y2="-0.66" width="0.1016" layer="51"/>
<wire x1="1.973" y1="0.983" x2="1.973" y2="-0.983" width="0.0508" layer="39"/>
<smd name="1" x="-0.95" y="0" dx="1.3" dy="1.5" layer="1"/>
<smd name="2" x="0.95" y="0" dx="1.3" dy="1.5" layer="1"/>
<text x="-1.27" y="1.27" size="1.27" layer="25">&gt;NAME</text>
<text x="-1.27" y="-2.54" size="1.27" layer="27">&gt;VALUE</text>
<rectangle x1="-1.0922" y1="-0.7239" x2="-0.3421" y2="0.7262" layer="51"/>
<rectangle x1="0.3556" y1="-0.7239" x2="1.1057" y2="0.7262" layer="51"/>
<rectangle x1="-0.1001" y1="-0.4001" x2="0.1001" y2="0.4001" layer="35"/>
</package>
</packages>
<packages3d>
<package3d name="R0805" urn="urn:adsk.eagle:package:23553/2" type="model" library_version="11">
<description>RESISTOR</description>
<packageinstances>
<packageinstance name="R0805"/>
</packageinstances>
</package3d>
<package3d name="C0805" urn="urn:adsk.eagle:package:23617/2" type="model" library_version="11">
<description>CAPACITOR</description>
<packageinstances>
<packageinstance name="C0805"/>
</packageinstances>
</package3d>
</packages3d>
</library>
<library name="Diode-SMD">
<description>Generated from &lt;b&gt;4Phasentastgenerator.sch&lt;/b&gt;&lt;p&gt;
by exp-lbrs.ulp</description>
<packages>
<package name="SOD323R-INFINEON">
<wire x1="-0.8" y1="0.55" x2="0.8" y2="0.55" width="0.1016" layer="21"/>
<wire x1="0.8" y1="0.55" x2="0.8" y2="-0.55" width="0.1016" layer="21"/>
<wire x1="0.8" y1="-0.55" x2="-0.8" y2="-0.55" width="0.1016" layer="21"/>
<wire x1="-0.8" y1="-0.55" x2="-0.8" y2="0.55" width="0.1016" layer="51"/>
<smd name="C" x="-1.25" y="0" dx="0.8" dy="0.6" layer="1"/>
<smd name="A" x="1.25" y="0" dx="0.8" dy="0.6" layer="1"/>
<text x="-1.65" y="0.75" size="1.27" layer="25">&gt;NAME</text>
<text x="-1.65" y="-2" size="1.27" layer="27">&gt;VALUE</text>
<rectangle x1="-0.8" y1="-0.55" x2="0" y2="0.55" layer="21"/>
<rectangle x1="-1.25" y1="-0.15" x2="-0.8" y2="0.15" layer="51"/>
<rectangle x1="0.8" y1="-0.15" x2="1.25" y2="0.15" layer="51"/>
</package>
</packages>
</library>
<library name="transistor" urn="urn:adsk.eagle:library:402">
<description>&lt;b&gt;Transistors&lt;/b&gt;&lt;p&gt;
&lt;author&gt;Created by librarian@cadsoft.de&lt;/author&gt;</description>
<packages>
<package name="SOT23" urn="urn:adsk.eagle:footprint:28669/1" library_version="7">
<description>&lt;b&gt;SOT-23&lt;/b&gt;</description>
<wire x1="1.4224" y1="0.6604" x2="1.4224" y2="-0.6604" width="0.1524" layer="51"/>
<wire x1="1.4224" y1="-0.6604" x2="-1.4224" y2="-0.6604" width="0.1524" layer="51"/>
<wire x1="-1.4224" y1="-0.6604" x2="-1.4224" y2="0.6604" width="0.1524" layer="51"/>
<wire x1="-1.4224" y1="0.6604" x2="1.4224" y2="0.6604" width="0.1524" layer="51"/>
<smd name="3" x="0" y="1.1" dx="1" dy="1.4" layer="1"/>
<smd name="2" x="0.95" y="-1.1" dx="1" dy="1.4" layer="1"/>
<smd name="1" x="-0.95" y="-1.1" dx="1" dy="1.4" layer="1"/>
<text x="-1.905" y="1.905" size="1.27" layer="25">&gt;NAME</text>
<text x="-1.905" y="-3.175" size="1.27" layer="27">&gt;VALUE</text>
<rectangle x1="-0.2286" y1="0.7112" x2="0.2286" y2="1.2954" layer="51"/>
<rectangle x1="0.7112" y1="-1.2954" x2="1.1684" y2="-0.7112" layer="51"/>
<rectangle x1="-1.1684" y1="-1.2954" x2="-0.7112" y2="-0.7112" layer="51"/>
</package>
</packages>
<packages3d>
<package3d name="SOT23" urn="urn:adsk.eagle:package:28738/2" type="model" library_version="7">
<description>SOT-23</description>
<packageinstances>
<packageinstance name="SOT23"/>
</packageinstances>
</package3d>
</packages3d>
</library>
<library name="led" urn="urn:adsk.eagle:library:259">
<description>&lt;b&gt;LEDs&lt;/b&gt;&lt;p&gt;
&lt;author&gt;Created by librarian@cadsoft.de&lt;/author&gt;&lt;br&gt;
Extended by Federico Battaglin &lt;author&gt;&amp;lt;federico.rd@fdpinternational.com&amp;gt;&lt;/author&gt; with DUOLED</description>
<packages>
<package name="CHIP-LED0805" urn="urn:adsk.eagle:footprint:15672/1" library_version="5">
<description>&lt;b&gt;Hyper CHIPLED Hyper-Bright LED&lt;/b&gt;&lt;p&gt;
LB R99A&lt;br&gt;
Source: http://www.osram.convergy.de/ ... lb_r99a.pdf</description>
<wire x1="-0.625" y1="0.45" x2="-0.625" y2="-0.45" width="0.1016" layer="51"/>
<wire x1="0.625" y1="0.45" x2="0.625" y2="-0.475" width="0.1016" layer="51"/>
<smd name="C" x="0" y="1.05" dx="1.2" dy="1.2" layer="1"/>
<smd name="A" x="0" y="-1.05" dx="1.2" dy="1.2" layer="1"/>
<text x="-1.27" y="-1.27" size="1.27" layer="25" rot="R90">&gt;NAME</text>
<text x="2.54" y="-1.27" size="1.27" layer="27" rot="R90">&gt;VALUE</text>
<rectangle x1="-0.675" y1="0" x2="-0.525" y2="0.3" layer="21"/>
<rectangle x1="0.525" y1="0" x2="0.675" y2="0.3" layer="21"/>
<rectangle x1="-0.15" y1="0" x2="0.15" y2="0.3" layer="21"/>
<rectangle x1="-0.675" y1="0.45" x2="0.675" y2="1.05" layer="51"/>
<rectangle x1="-0.675" y1="-1.05" x2="0.675" y2="-0.45" layer="51"/>
</package>
</packages>
<packages3d>
<package3d name="CHIP-LED0805" urn="urn:adsk.eagle:package:15818/2" type="model" library_version="5">
<description>Hyper CHIPLED Hyper-Bright LED
LB R99A
Source: http://www.osram.convergy.de/ ... lb_r99a.pdf</description>
<packageinstances>
<packageinstance name="CHIP-LED0805"/>
</packageinstances>
</package3d>
</packages3d>
</library>
<library name="diode" urn="urn:adsk.eagle:library:210">
<description>&lt;b&gt;Diodes&lt;/b&gt;&lt;p&gt;
Based on the following sources:
&lt;ul&gt;
&lt;li&gt;Motorola : www.onsemi.com
&lt;li&gt;Fairchild : www.fairchildsemi.com
&lt;li&gt;Philips : www.semiconductors.com
&lt;li&gt;Vishay : www.vishay.de
&lt;/ul&gt;
&lt;author&gt;Created by librarian@cadsoft.de&lt;/author&gt;</description>
<packages>
<package name="SMB" urn="urn:adsk.eagle:footprint:43181/1" library_version="8">
<description>&lt;B&gt;DIODE&lt;/B&gt;</description>
<wire x1="-2.2606" y1="1.905" x2="2.2606" y2="1.905" width="0.1016" layer="21"/>
<wire x1="-2.2606" y1="-1.905" x2="2.2606" y2="-1.905" width="0.1016" layer="21"/>
<wire x1="-2.2606" y1="-1.905" x2="-2.2606" y2="1.905" width="0.1016" layer="51"/>
<wire x1="2.2606" y1="-1.905" x2="2.2606" y2="1.905" width="0.1016" layer="51"/>
<wire x1="0.193" y1="1" x2="-0.83" y2="0" width="0.2032" layer="21"/>
<wire x1="-0.83" y1="0" x2="0.193" y2="-1" width="0.2032" layer="21"/>
<wire x1="0.193" y1="-1" x2="0.193" y2="1" width="0.2032" layer="21"/>
<smd name="C" x="-2.2" y="0" dx="2.4" dy="2.4" layer="1"/>
<smd name="A" x="2.2" y="0" dx="2.4" dy="2.4" layer="1"/>
<text x="-2.159" y="2.159" size="1.27" layer="25">&gt;NAME</text>
<text x="-2.159" y="-3.429" size="1.27" layer="27">&gt;VALUE</text>
<rectangle x1="-2.794" y1="-1.0922" x2="-2.2606" y2="1.0922" layer="51"/>
<rectangle x1="2.2606" y1="-1.0922" x2="2.794" y2="1.0922" layer="51"/>
<rectangle x1="-1.35" y1="-1.9" x2="-0.8" y2="1.9" layer="51"/>
</package>
</packages>
<packages3d>
<package3d name="SMB" urn="urn:adsk.eagle:package:43404/2" type="model" library_version="8">
<description>DIODE</description>
<packageinstances>
<packageinstance name="SMB"/>
</packageinstances>
</package3d>
</packages3d>
</library>
</libraries>
<attributes>
</attributes>
<variantdefs>
</variantdefs>
<classes>
<class number="0" name="default" width="0" drill="0">
</class>
</classes>
<designrules name="default">
<description language="de">&lt;b&gt;EAGLE Design Rules&lt;/b&gt;
&lt;p&gt;
Die Standard-Design-Rules sind so gewählt, dass sie für 
die meisten Anwendungen passen. Sollte ihre Platine 
besondere Anforderungen haben, treffen Sie die erforderlichen
Einstellungen hier und speichern die Design Rules unter 
einem neuen Namen ab.</description>
<description language="en">&lt;b&gt;EAGLE Design Rules&lt;/b&gt;
&lt;p&gt;
The default Design Rules have been set to cover
a wide range of applications. Your particular design
may have different requirements, so please make the
necessary adjustments and save your customized
design rules under a new name.</description>
<param name="layerSetup" value="(1*16)"/>
<param name="mtCopper" value="0.035mm 0.035mm 0.035mm 0.035mm 0.035mm 0.035mm 0.035mm 0.035mm 0.035mm 0.035mm 0.035mm 0.035mm 0.035mm 0.035mm 0.035mm 0.035mm"/>
<param name="mtIsolate" value="1.5mm 0.15mm 0.2mm 0.15mm 0.2mm 0.15mm 0.2mm 0.15mm 0.2mm 0.15mm 0.2mm 0.15mm 0.2mm 0.15mm 0.2mm"/>
<param name="mdWireWire" value="6mil"/>
<param name="mdWirePad" value="6mil"/>
<param name="mdWireVia" value="6mil"/>
<param name="mdPadPad" value="6mil"/>
<param name="mdPadVia" value="6mil"/>
<param name="mdViaVia" value="6mil"/>
<param name="mdSmdPad" value="6mil"/>
<param name="mdSmdVia" value="6mil"/>
<param name="mdSmdSmd" value="6mil"/>
<param name="mdViaViaSameLayer" value="6mil"/>
<param name="mnLayersViaInSmd" value="2"/>
<param name="mdCopperDimension" value="40mil"/>
<param name="mdDrill" value="6mil"/>
<param name="mdSmdStop" value="0mil"/>
<param name="msWidth" value="6mil"/>
<param name="msDrill" value="0.35mm"/>
<param name="msMicroVia" value="9.99mm"/>
<param name="msBlindViaRatio" value="0.5"/>
<param name="rvPadTop" value="0.25"/>
<param name="rvPadInner" value="0.25"/>
<param name="rvPadBottom" value="0.25"/>
<param name="rvViaOuter" value="0.25"/>
<param name="rvViaInner" value="0.25"/>
<param name="rvMicroViaOuter" value="0.25"/>
<param name="rvMicroViaInner" value="0.25"/>
<param name="rlMinPadTop" value="10mil"/>
<param name="rlMaxPadTop" value="20mil"/>
<param name="rlMinPadInner" value="10mil"/>
<param name="rlMaxPadInner" value="20mil"/>
<param name="rlMinPadBottom" value="10mil"/>
<param name="rlMaxPadBottom" value="20mil"/>
<param name="rlMinViaOuter" value="8mil"/>
<param name="rlMaxViaOuter" value="20mil"/>
<param name="rlMinViaInner" value="8mil"/>
<param name="rlMaxViaInner" value="20mil"/>
<param name="rlMinMicroViaOuter" value="4mil"/>
<param name="rlMaxMicroViaOuter" value="20mil"/>
<param name="rlMinMicroViaInner" value="4mil"/>
<param name="rlMaxMicroViaInner" value="20mil"/>
<param name="psTop" value="-1"/>
<param name="psBottom" value="-1"/>
<param name="psFirst" value="-1"/>
<param name="psElongationLong" value="100"/>
<param name="psElongationOffset" value="100"/>
<param name="mvStopFrame" value="1"/>
<param name="mvCreamFrame" value="0"/>
<param name="mlMinStopFrame" value="4mil"/>
<param name="mlMaxStopFrame" value="4mil"/>
<param name="mlMinCreamFrame" value="0mil"/>
<param name="mlMaxCreamFrame" value="0mil"/>
<param name="mlViaStopLimit" value="0mil"/>
<param name="srRoundness" value="0"/>
<param name="srMinRoundness" value="0mil"/>
<param name="srMaxRoundness" value="0mil"/>
<param name="slThermalIsolate" value="10mil"/>
<param name="slThermalsForVias" value="0"/>
<param name="dpMaxLengthDifference" value="10mm"/>
<param name="dpGapFactor" value="2.5"/>
<param name="checkAngle" value="0"/>
<param name="checkFont" value="1"/>
<param name="checkRestrict" value="1"/>
<param name="checkStop" value="0"/>
<param name="checkValues" value="0"/>
<param name="checkNames" value="1"/>
<param name="checkWireStubs" value="1"/>
<param name="checkPolygonWidth" value="0"/>
<param name="useDiameter" value="13"/>
<param name="maxErrors" value="50"/>
</designrules>
<autorouter>
<pass name="Default">
<param name="RoutingGrid" value="50mil"/>
<param name="AutoGrid" value="1"/>
<param name="Efforts" value="0"/>
<param name="TopRouterVariant" value="1"/>
<param name="tpViaShape" value="round"/>
<param name="PrefDir.1" value="a"/>
<param name="PrefDir.2" value="0"/>
<param name="PrefDir.3" value="0"/>
<param name="PrefDir.4" value="0"/>
<param name="PrefDir.5" value="0"/>
<param name="PrefDir.6" value="0"/>
<param name="PrefDir.7" value="0"/>
<param name="PrefDir.8" value="0"/>
<param name="PrefDir.9" value="0"/>
<param name="PrefDir.10" value="0"/>
<param name="PrefDir.11" value="0"/>
<param name="PrefDir.12" value="0"/>
<param name="PrefDir.13" value="0"/>
<param name="PrefDir.14" value="0"/>
<param name="PrefDir.15" value="0"/>
<param name="PrefDir.16" value="a"/>
<param name="cfVia" value="8"/>
<param name="cfNonPref" value="5"/>
<param name="cfChangeDir" value="2"/>
<param name="cfOrthStep" value="2"/>
<param name="cfDiagStep" value="3"/>
<param name="cfExtdStep" value="0"/>
<param name="cfBonusStep" value="1"/>
<param name="cfMalusStep" value="1"/>
<param name="cfPadImpact" value="4"/>
<param name="cfSmdImpact" value="4"/>
<param name="cfBusImpact" value="0"/>
<param name="cfHugging" value="3"/>
<param name="cfAvoid" value="4"/>
<param name="cfPolygon" value="10"/>
<param name="cfBase.1" value="0"/>
<param name="cfBase.2" value="1"/>
<param name="cfBase.3" value="1"/>
<param name="cfBase.4" value="1"/>
<param name="cfBase.5" value="1"/>
<param name="cfBase.6" value="1"/>
<param name="cfBase.7" value="1"/>
<param name="cfBase.8" value="1"/>
<param name="cfBase.9" value="1"/>
<param name="cfBase.10" value="1"/>
<param name="cfBase.11" value="1"/>
<param name="cfBase.12" value="1"/>
<param name="cfBase.13" value="1"/>
<param name="cfBase.14" value="1"/>
<param name="cfBase.15" value="1"/>
<param name="cfBase.16" value="0"/>
<param name="mnVias" value="20"/>
<param name="mnSegments" value="9999"/>
<param name="mnExtdSteps" value="9999"/>
<param name="mnRipupLevel" value="10"/>
<param name="mnRipupSteps" value="100"/>
<param name="mnRipupTotal" value="100"/>
</pass>
<pass name="Follow-me" refer="Default" active="yes">
</pass>
<pass name="Busses" refer="Default" active="yes">
<param name="cfNonPref" value="4"/>
<param name="cfBusImpact" value="4"/>
<param name="cfHugging" value="0"/>
<param name="mnVias" value="0"/>
</pass>
<pass name="Route" refer="Default" active="yes">
</pass>
<pass name="Optimize1" refer="Default" active="yes">
<param name="cfVia" value="99"/>
<param name="cfExtdStep" value="10"/>
<param name="cfHugging" value="1"/>
<param name="mnExtdSteps" value="1"/>
<param name="mnRipupLevel" value="0"/>
</pass>
<pass name="Optimize2" refer="Optimize1" active="yes">
<param name="cfNonPref" value="0"/>
<param name="cfChangeDir" value="6"/>
<param name="cfExtdStep" value="0"/>
<param name="cfBonusStep" value="2"/>
<param name="cfMalusStep" value="2"/>
<param name="cfPadImpact" value="2"/>
<param name="cfSmdImpact" value="2"/>
<param name="cfHugging" value="0"/>
</pass>
<pass name="Optimize3" refer="Optimize2" active="yes">
<param name="cfChangeDir" value="8"/>
<param name="cfPadImpact" value="0"/>
<param name="cfSmdImpact" value="0"/>
</pass>
<pass name="Optimize4" refer="Optimize3" active="yes">
<param name="cfChangeDir" value="25"/>
</pass>
</autorouter>
<elements>
<element name="X1" library="con-subd" library_urn="urn:adsk.eagle:library:189" package="F25D" package3d_urn="urn:adsk.eagle:package:10286/1" value="" x="19.05" y="31.75" smashed="yes">
<attribute name="MF" value="" x="58.42" y="20.32" size="1.778" layer="27" display="off"/>
<attribute name="MPN" value="" x="58.42" y="20.32" size="1.778" layer="27" display="off"/>
<attribute name="NAME" x="18.5928" y="23.114" size="0.6096" layer="25" ratio="10"/>
<attribute name="OC_FARNELL" value="unknown" x="58.42" y="20.32" size="1.778" layer="27" display="off"/>
<attribute name="OC_NEWARK" value="unknown" x="58.42" y="20.32" size="1.778" layer="27" display="off"/>
<attribute name="POPULARITY" value="2" x="58.42" y="20.32" size="1.778" layer="27" display="off"/>
<attribute name="VALUE" x="17.5768" y="21.59" size="1.778" layer="27" ratio="10"/>
</element>
<element name="X2" library="con-hirschmann" library_urn="urn:adsk.eagle:library:153" package="MAB5SH" package3d_urn="urn:adsk.eagle:package:7443/1" value="Midi Out" x="19.812" y="7.112" smashed="yes">
<attribute name="MF" value="" x="19.812" y="7.112" size="1.778" layer="27" display="off"/>
<attribute name="MPN" value="" x="19.812" y="7.112" size="1.778" layer="27" display="off"/>
<attribute name="NAME" x="13.716" y="16.256" size="0.6096" layer="25" ratio="10"/>
<attribute name="OC_FARNELL" value="809883" x="19.812" y="7.112" size="1.778" layer="27" display="off"/>
<attribute name="OC_NEWARK" value="unknown" x="19.812" y="7.112" size="1.778" layer="27" display="off"/>
<attribute name="POPULARITY" value="4" x="19.812" y="7.112" size="1.778" layer="27" display="off"/>
<attribute name="VALUE" x="16.51" y="3.556" size="1.27" layer="27" ratio="10"/>
</element>
<element name="R1" library="rcl" library_urn="urn:adsk.eagle:library:334" package="R0805" package3d_urn="urn:adsk.eagle:package:23553/2" value="10k" x="6.35" y="20.32" smashed="yes">
<attribute name="NAME" x="5.715" y="21.59" size="0.6096" layer="25"/>
<attribute name="POPULARITY" value="86" x="6.35" y="20.32" size="1.778" layer="27" display="off"/>
<attribute name="SPICEPREFIX" value="R" x="6.35" y="20.32" size="1.778" layer="27" display="off"/>
<attribute name="VALUE" x="5.715" y="18.542" size="0.6096" layer="27"/>
</element>
<element name="R2" library="rcl" library_urn="urn:adsk.eagle:library:334" package="R0805" package3d_urn="urn:adsk.eagle:package:23553/2" value="220k" x="4.064" y="15.24" smashed="yes">
<attribute name="NAME" x="3.683" y="16.51" size="0.6096" layer="25"/>
<attribute name="POPULARITY" value="86" x="4.064" y="15.24" size="1.778" layer="27" display="off"/>
<attribute name="SPICEPREFIX" value="R" x="4.064" y="15.24" size="1.778" layer="27" display="off"/>
<attribute name="VALUE" x="3.429" y="13.462" size="0.6096" layer="27"/>
</element>
<element name="D1" library="Diode-SMD" package="SOD323R-INFINEON" value="1N4148WX-TP" x="8.636" y="15.24" smashed="yes">
<attribute name="NAME" x="6.986" y="15.99" size="0.6096" layer="25"/>
<attribute name="VALUE" x="6.224" y="13.748" size="0.6096" layer="27"/>
</element>
<element name="T1" library="transistor" library_urn="urn:adsk.eagle:library:402" package="SOT23" package3d_urn="urn:adsk.eagle:package:28738/2" value="BC847" x="5.842" y="8.89" smashed="yes" rot="R180">
<attribute name="NAME" x="7.493" y="7.493" size="0.6096" layer="25" rot="R180"/>
<attribute name="POPULARITY" value="5" x="5.842" y="8.89" size="1.778" layer="27" rot="R180" display="off"/>
<attribute name="VALUE" x="4.191" y="9.017" size="0.6096" layer="27" rot="R180"/>
</element>
<element name="R3" library="rcl" library_urn="urn:adsk.eagle:library:334" package="R0805" package3d_urn="urn:adsk.eagle:package:23553/2" value="220" x="34.29" y="15.748" smashed="yes" rot="R270">
<attribute name="NAME" x="35.56" y="16.383" size="0.6096" layer="25" rot="R270"/>
<attribute name="POPULARITY" value="86" x="34.29" y="15.748" size="1.778" layer="27" rot="R270" display="off"/>
<attribute name="SPICEPREFIX" value="R" x="34.29" y="15.748" size="1.778" layer="27" rot="R270" display="off"/>
<attribute name="VALUE" x="32.512" y="16.383" size="0.6096" layer="27" rot="R270"/>
</element>
<element name="R4" library="rcl" library_urn="urn:adsk.eagle:library:334" package="R0805" package3d_urn="urn:adsk.eagle:package:23553/2" value="5k1" x="31.496" y="20.066" smashed="yes" rot="R180">
<attribute name="NAME" x="32.131" y="18.796" size="0.6096" layer="25" rot="R180"/>
<attribute name="POPULARITY" value="86" x="31.496" y="20.066" size="1.778" layer="27" rot="R180" display="off"/>
<attribute name="SPICEPREFIX" value="R" x="31.496" y="20.066" size="1.778" layer="27" rot="R180" display="off"/>
<attribute name="VALUE" x="32.131" y="21.844" size="0.6096" layer="27" rot="R180"/>
</element>
<element name="LED1" library="led" library_urn="urn:adsk.eagle:library:259" package="CHIP-LED0805" package3d_urn="urn:adsk.eagle:package:15818/2" value="white" x="30.48" y="15.748" smashed="yes">
<attribute name="NAME" x="29.464" y="14.732" size="0.6096" layer="25" rot="R90"/>
<attribute name="POPULARITY" value="68" x="30.48" y="15.748" size="1.778" layer="27" display="off"/>
<attribute name="VALUE" x="32.004" y="14.986" size="0.6096" layer="27" rot="R90"/>
</element>
<element name="R5" library="rcl" library_urn="urn:adsk.eagle:library:334" package="R0805" package3d_urn="urn:adsk.eagle:package:23553/2" value="1k" x="24.892" y="19.558" smashed="yes" rot="R90">
<attribute name="NAME" x="23.622" y="18.923" size="0.6096" layer="25" rot="R90"/>
<attribute name="POPULARITY" value="86" x="24.892" y="19.558" size="1.778" layer="27" rot="R90" display="off"/>
<attribute name="SPICEPREFIX" value="R" x="24.892" y="19.558" size="1.778" layer="27" rot="R90" display="off"/>
<attribute name="VALUE" x="26.67" y="18.923" size="0.6096" layer="27" rot="R90"/>
</element>
<element name="D2" library="diode" library_urn="urn:adsk.eagle:library:210" package="SMB" package3d_urn="urn:adsk.eagle:package:43404/2" value="5.1v" x="19.05" y="19.812" smashed="yes">
<attribute name="NAME" x="16.891" y="21.971" size="0.6096" layer="25"/>
<attribute name="POPULARITY" value="3" x="19.05" y="19.812" size="1.778" layer="27" display="off"/>
<attribute name="VALUE" x="18.161" y="17.145" size="0.6096" layer="27"/>
</element>
<element name="C1" library="rcl" library_urn="urn:adsk.eagle:library:334" package="C0805" package3d_urn="urn:adsk.eagle:package:23617/2" value="100n" x="12.192" y="19.05" smashed="yes" rot="R90">
<attribute name="NAME" x="10.922" y="17.78" size="0.6096" layer="25" rot="R90"/>
<attribute name="POPULARITY" value="88" x="12.192" y="19.05" size="1.778" layer="27" rot="R90" display="off"/>
<attribute name="SPICEPREFIX" value="C" x="12.192" y="19.05" size="1.778" layer="27" rot="R90" display="off"/>
<attribute name="VALUE" x="13.97" y="18.034" size="0.6096" layer="27" rot="R90"/>
</element>
</elements>
<signals>
<signal name="N$1">
<contactref element="X1" pad="2"/>
<contactref element="R1" pad="1"/>
<wire x1="5.334" y1="25.705" x2="5.4" y2="25.639" width="0.1524" layer="1"/>
<wire x1="5.4" y1="25.639" x2="5.4" y2="20.32" width="0.1524" layer="1"/>
</signal>
<signal name="N$2">
<contactref element="R1" pad="2"/>
<contactref element="R2" pad="2"/>
<contactref element="D1" pad="C"/>
<contactref element="T1" pad="1"/>
<wire x1="7.3" y1="20.32" x2="7.386" y2="20.234" width="0.1524" layer="1"/>
<wire x1="7.386" y1="20.234" x2="7.386" y2="15.24" width="0.1524" layer="1"/>
<wire x1="7.386" y1="15.24" x2="5.014" y2="15.24" width="0.1524" layer="1"/>
<wire x1="6.792" y1="9.99" x2="6.792" y2="14.646" width="0.1524" layer="1"/>
<wire x1="6.792" y1="14.646" x2="7.386" y2="15.24" width="0.1524" layer="1"/>
</signal>
<signal name="GND">
<contactref element="R2" pad="1"/>
<contactref element="D1" pad="A"/>
<contactref element="T1" pad="2"/>
<contactref element="X1" pad="7"/>
<contactref element="D2" pad="A"/>
<contactref element="C1" pad="1"/>
<polygon width="0.1524" layer="1">
<vertex x="0.254" y="28.956"/>
<vertex x="37.592" y="28.956"/>
<vertex x="37.592" y="0.254"/>
<vertex x="0.254" y="0.254"/>
</polygon>
<contactref element="X2" pad="PE@"/>
<contactref element="X2" pad="PE"/>
<contactref element="X2" pad="2"/>
</signal>
<signal name="N$3">
<contactref element="X2" pad="5"/>
<contactref element="R3" pad="2"/>
<wire x1="14.732" y1="14.732" x2="23.1677875" y2="14.732" width="0.1524" layer="1"/>
<wire x1="23.1677875" y1="14.732" x2="24.3869875" y2="13.5128" width="0.1524" layer="1"/>
<wire x1="24.3869875" y1="13.5128" x2="33.0048" y2="13.5128" width="0.1524" layer="1"/>
<wire x1="33.0048" y1="13.5128" x2="34.29" y2="14.798" width="0.1524" layer="1"/>
</signal>
<signal name="N$4">
<contactref element="R3" pad="1"/>
<contactref element="T1" pad="3"/>
<contactref element="R4" pad="1"/>
<wire x1="32.446" y1="20.066" x2="34.29" y2="18.222" width="0.1524" layer="1"/>
<wire x1="34.29" y1="18.222" x2="34.29" y2="16.698" width="0.1524" layer="1"/>
<wire x1="5.842" y1="7.79" x2="7.1134" y2="9.0614" width="0.1524" layer="1"/>
<wire x1="7.1134" y1="9.0614" x2="7.3866875" y2="9.0614" width="0.1524" layer="1"/>
<wire x1="7.9772875" y1="9.652" x2="35.56" y2="9.652" width="0.1524" layer="1"/>
<wire x1="7.3866875" y1="9.0614" x2="7.9772875" y2="9.652" width="0.1524" layer="1"/>
<wire x1="35.56" y1="9.652" x2="35.56" y2="16.764" width="0.1524" layer="1"/>
<wire x1="35.56" y1="16.764" x2="34.356" y2="16.764" width="0.1524" layer="1"/>
<wire x1="34.356" y1="16.764" x2="34.29" y2="16.698" width="0.1524" layer="1"/>
</signal>
<signal name="N$6">
<contactref element="LED1" pad="A"/>
<contactref element="R5" pad="1"/>
<contactref element="D2" pad="C"/>
<contactref element="C1" pad="2"/>
<wire x1="12.192" y1="20" x2="16.662" y2="20" width="0.1524" layer="1"/>
<wire x1="16.662" y1="20" x2="16.807" y2="19.855" width="0.1524" layer="1"/>
<wire x1="16.807" y1="19.855" x2="16.85" y2="19.812" width="0.1524" layer="1"/>
<wire x1="24.892" y1="18.608" x2="24.572" y2="18.288" width="0.1524" layer="1"/>
<wire x1="24.572" y1="18.288" x2="16.764" y2="18.288" width="0.1524" layer="1"/>
<wire x1="16.764" y1="18.288" x2="16.764" y2="19.812" width="0.1524" layer="1"/>
<wire x1="16.764" y1="19.812" x2="16.807" y2="19.855" width="0.1524" layer="1"/>
<wire x1="30.48" y1="14.698" x2="24.926" y2="14.698" width="0.1524" layer="1"/>
<contactref element="X2" pad="4"/>
<wire x1="24.892" y1="18.608" x2="24.892" y2="14.732" width="0.1524" layer="1"/>
<wire x1="24.892" y1="14.732" x2="24.926" y2="14.698" width="0.1524" layer="1"/>
</signal>
<signal name="N$7">
<contactref element="R4" pad="2"/>
<contactref element="LED1" pad="C"/>
<wire x1="30.546" y1="20.066" x2="30.546" y2="16.864" width="0.1524" layer="1"/>
<wire x1="30.546" y1="16.864" x2="30.48" y2="16.798" width="0.1524" layer="1"/>
</signal>
<signal name="N$5">
<contactref element="R5" pad="2"/>
<contactref element="X1" pad="9"/>
<wire x1="24.5362" y1="25.7052" x2="24.892" y2="25.3494" width="0.1524" layer="1"/>
<wire x1="24.892" y1="25.3494" x2="24.892" y2="20.508" width="0.1524" layer="1"/>
</signal>
</signals>
<mfgpreviewcolors>
<mfgpreviewcolor name="soldermaskcolor" color="0xC8008000"/>
<mfgpreviewcolor name="silkscreencolor" color="0xFFFEFEFE"/>
<mfgpreviewcolor name="backgroundcolor" color="0xFF282828"/>
<mfgpreviewcolor name="coppercolor" color="0xFFFFBF00"/>
<mfgpreviewcolor name="substratecolor" color="0xFF786E46"/>
</mfgpreviewcolors>
</board>
</drawing>
<compatibility>
<note version="6.3" minversion="6.2.2" severity="warning">
Since Version 6.2.2 text objects can contain more than one line,
which will not be processed correctly with this version.
</note>
<note version="8.2" severity="warning">
Since Version 8.2, EAGLE supports online libraries. The ids
of those online libraries will not be understood (or retained)
with this version.
</note>
<note version="8.3" severity="warning">
Since Version 8.3, EAGLE supports URNs for individual library
assets (packages, symbols, and devices). The URNs of those assets
will not be understood (or retained) with this version.
</note>
<note version="8.3" severity="warning">
Since Version 8.3, EAGLE supports the association of 3D packages
with devices in libraries, schematics, and board files. Those 3D
packages will not be understood (or retained) with this version.
</note>
</compatibility>
</eagle>
